# --> Including file '/nightlies/jenkins/workspace/nightly-slot-test-project-platform@5/build/BOOLE/BOOLE_HEAD/Digi/Boole/tests/options/testBoole-defaults.py'
# <-- End of file '/nightlies/jenkins/workspace/nightly-slot-test-project-platform@5/build/BOOLE/BOOLE_HEAD/Digi/Boole/tests/options/testBoole-defaults.py'
# --> Including file '/afs/cern.ch/lhcb/software/releases/DBASE/AppConfig/v3r295/options/Boole/DataType-2011.py'
# <-- End of file '/afs/cern.ch/lhcb/software/releases/DBASE/AppConfig/v3r295/options/Boole/DataType-2011.py'
# --> Including file '/nightlies/jenkins/workspace/nightly-slot-test-project-platform@5/build/BOOLE/BOOLE_HEAD/Digi/Boole/options/MC11-Files.py'
# WARNING: run() will not reset the DDDB tag, because it is already set, set withDB=True(force) or False(skip) to suppress this warning
# WARNING: run() will not reset the CondDB tag, because it is already set, set withDB=True(force) or False(skip) to suppress this warning
# <-- End of file '/nightlies/jenkins/workspace/nightly-slot-test-project-platform@5/build/BOOLE/BOOLE_HEAD/Digi/Boole/options/MC11-Files.py'
# applying configuration of Boole
# WARNING: Property 'DataType' is set in both 'Boole' and 'LHCbApp', using 'Boole.DataType'
# /***** User Boole/Boole ****************************************************************************
# |-DatasetName         = 'Gauss-10000000-100ev-20111014'  (default: 'Boole')
# |-DetectorLink        = ['PuVeto', 'Velo', 'TT', 'IT', 'OT', 'Tr', 'Rich1', 'Rich2', 'Spd', 'Prs', 'Ecal', 'Hcal', 'Muon', 'L0']
# |                     (default: ['PuVeto', 'Velo', 'TT', 'IT', 'OT', 'Tr', 'Rich1', 'Rich2', 'Spd', 'Prs', 'Ecal', 'Hcal', 'Muon', 'L0'])
# |-DetectorInit        = {'MUON': ['Muon'], 'DATA': ['Data']}  (default: {'MUON': ['Muon'], 'DATA': ['Data']})
# |-Histograms          = 'Default'
# |-SkipEvents          = 0
# |-VeloTell1Processing = True
# |-InputDataType       = 'SIM'
# |-ProductionMode      = False
# |-SplitRawEventFormat = None
# |-FilterSequence      = []  (default: [])
# |-TAESubdets          = ['Calo', 'Muon']  (default: ['Calo', 'Muon'])
# |-Outputs             = ['DIGI', 'MDF']  (default: ['DIGI'])
# |-DetectorDigi        = ['PuVeto', 'Velo', 'TT', 'IT', 'OT', 'Rich1', 'Rich2', 'Spd', 'Prs', 'Ecal', 'Hcal', 'Muon', 'L0']
# |                     (default: ['PuVeto', 'Velo', 'TT', 'IT', 'OT', 'Rich1', 'Rich2', 'Spd', 'Prs', 'Ecal', 'Hcal', 'Muon', 'L0'])
# |-MainSequence        = []  (default: [])
# |-DigiType            = 'Default'
# |-MoniSequence        = ['Velo', 'TT', 'IT', 'OT', 'Rich', 'Calo', 'Muon', 'MC']  (default: [])
# |-DetectorMoni        = ['PuVeto', 'Velo', 'TT', 'IT', 'OT', 'Rich1', 'Rich2', 'Spd', 'Prs', 'Ecal', 'Hcal', 'Muon', 'L0', 'MC']
# |                     (default: ['PuVeto', 'Velo', 'TT', 'IT', 'OT', 'Rich1', 'Rich2', 'Spd', 'Prs', 'Ecal', 'Hcal', 'Muon', 'L0', 'MC'])
# |-TAEPrev             = 0
# |-EnablePack          = False  (default: True)
# |-DigiSequence        = ['Velo', 'TT', 'IT', 'OT', 'Rich', 'Calo', 'Muon']  (default: [])
# |-OutputLevel         = 3
# |-EvtMax              = 10  (default: -1)
# |-TAENext             = 0
# |-UseSpillover        = False
# |-MergeGenFSR         = False
# |-EnableL0            = False
# |-CondDBtag           = ''
# |-InitSequence        = ['Data', 'Muon']  (default: [])
# |-DataType            = '2011'  (default: '2015')
# |-NoWarnings          = False
# |-SiG4EnergyDeposit   = True
# |-WriteFSR            = True
# |-LinkSequence        = ['Velo', 'TT', 'IT', 'OT', 'Tr', 'Rich', 'Calo', 'Muon']  (default: [])
# |-SpilloverPaths      = ['Prev', 'PrevPrev', 'Next', 'NextNext']  (default: [])
# |-DDDBtag             = ''
# |-Monitors            = ['SC', 'FPE']  (default: [])
# \----- (End of User Boole/Boole) -------------------------------------------------------------------
# DigiWriter.ItemList    = ['/Event/Gen/Header#1', '/Event/MC/Header#1', '/Event/MC/DigiHeader#1', '/Event/DAQ/RawEvent#1', '/Event/Gen/BeamParameters#1', '/Event/Gen/Collisions#1', '/Event/MC/Vertices#1', '/Event/MC/Particles#1', '/Event/MC/Rich/DigitSummaries#1', '/Event/MC/Muon/DigitsInfo#1', '/Event/Link/Raw/Velo/Clusters#1', '/Event/Link/Raw/TT/Clusters#1', '/Event/Link/Raw/IT/Clusters#1', '/Event/Link/Raw/OT/Times#1', '/Event/Link/Raw/Muon/Digits#1', '/Event/Link/Raw/Ecal/Digits#1', '/Event/Link/Raw/Hcal/Digits#1', '/Event/MC/TrackInfo#1', '/Event/Link/Raw/Velo/Clusters2MCHits#1', '/Event/Link/Raw/TT/Clusters2MCHits#1', '/Event/Link/Raw/IT/Clusters2MCHits#1', '/Event/Link/Raw/OT/Times2MCHits#1']
# DigiWriter.OptItemList = ['/Event/Gen/HepMCEvents#1']
ApplicationMgr    SUCCESS
====================================================================================================================================
                                                   Welcome to Boole version HEAD
                                          running on lbbuild72.cern.ch on Mon Oct  3 07:36:18 2016
====================================================================================================================================
ApplicationMgr       INFO Application Manager Configured successfully
StatusCodeSvc        INFO initialize
DetectorPersist...   INFO Added successfully Conversion service:XmlCnvSvc
DetectorDataSvc   SUCCESS Detector description database: conddb:/lhcb.xml
RndmGenSvc.Engine    INFO Generator engine type:CLHEP::RanluxEngine
RndmGenSvc.Engine    INFO Current Seed:1234567 Luxury:3
RndmGenSvc           INFO Using Random engine:HepRndm::Engine<CLHEP::RanluxEngine>
TimingAuditor.T...   INFO This machine has a speed about   3.19 times the speed of a 2.8 GHz Xeon.
BooleSequencer       INFO Member list: ProcessPhase/Init, ProcessPhase/Digi, ProcessPhase/Link, ProcessPhase/Moni, ProcessPhase/Filter
Init                 INFO Member list: GaudiSequencer/InitBooleSeq, GaudiSequencer/InitDataSeq, GaudiSequencer/InitMuonSeq
InitBooleSeq         INFO Member list: BooleInit, GaudiSequencer/SpilloverHandler
BooleInit         SUCCESS ==================================================================
BooleInit         SUCCESS Requested to process 10 events
BooleInit         SUCCESS ==================================================================
RootHistSvc          INFO Writing ROOT histograms to: Gauss-10000000-100ev-20111014-10ev-histos.root
HistogramPersis...   INFO Added successfully Conversion service:RootHistSvc
HistogramDataSvc     INFO Added stream file:/afs/cern.ch/lhcb/software/DEV/nightlies/PARAM/ParamFiles/v8r999/data/muonlow-G4.root as LowEnergy
HistogramDataSvc     INFO Added stream file:/afs/cern.ch/lhcb/software/DEV/nightlies/PARAM/ParamFiles/v8r999/data/muonflat-G4.root as MuonFlatSpillover
HistogramDataSvc     INFO Added stream file:/afs/cern.ch/lhcb/software/DEV/nightlies/PARAM/ParamFiles/v8r999/data/OTDoublePulse.root as OTDoublePulse
SpilloverHandler     INFO Member list: TESCheck/SpilloverLoader, EventNodeKiller/SpilloverKiller
InitDataSeq          INFO Member list:
InitMuonSeq          INFO Member list: MuonBackground/MuonLowEnergy, MuonBackground/MuonFlatSpillover
COOLConfSvc          INFO CORAL Connection Retrial Period set to 60s
COOLConfSvc          INFO CORAL Connection Retrial Time-Out set to 900s
DDDB                 INFO Connected to database "sqlite_file:/afs/cern.ch/lhcb/software/DEV/nightlies/DBASE/Det/SQLDDDB/v7r999/db/DDDB.db/DDDB"
DDDB                 INFO Using TAG "head-20110914"
EventClockSvc.F...   INFO Event times generated from 0 with steps of 0
SIMCOND              INFO Connected to database "sqlite_file:/afs/cern.ch/lhcb/software/DEV/nightlies/DBASE/Det/SQLDDDB/v7r999/db/SIMCOND.db/SIMCOND"
SIMCOND              INFO Using TAG "sim-20110723-vc-md100"
RFileCnv             INFO opening Root file "/afs/cern.ch/lhcb/software/DEV/nightlies/PARAM/ParamFiles/v8r999/data/muonlow-G4.root" for reading
MuonLowEnergy        INFO The low energy background is run by default for main events plus (if any) spillover events (max 4)
RFileCnv             INFO opening Root file "/afs/cern.ch/lhcb/software/DEV/nightlies/PARAM/ParamFiles/v8r999/data/muonflat-G4.root" for reading
Digi                 INFO Member list: GaudiSequencer/DigiVeloSeq, GaudiSequencer/DigiTTSeq, GaudiSequencer/DigiITSeq, GaudiSequencer/DigiOTSeq, GaudiSequencer/DigiRichSeq, GaudiSequencer/DigiCaloSeq, GaudiSequencer/DigiMuonSeq
DigiVeloSeq          INFO Member list: VeloSim, VeloSim/VeloPUSim, VeloTell1DataProcessor, VeloSimTell1ClusterMaker, PuVetoFillRawBuffer
DeVeloRType       WARNING VELO R sensor M2 routing lines not in conditions DB cond: Routing-R-X-Strip0000 and Routing-R-Y-Strip0000
VeloSim              INFO Probability to add noise to empty strips 0.0153028
VeloSim              INFO Probability to add noise to isolated empty strips 3.2331e-08
VeloSim.RadDamage WARNING VeloRadDamageTool:: The WARNING message is suppressed : 'Missing M2 coupling conditions using default values'
VeloPUSim            INFO Probability to add noise to empty strips 0.0153028
VeloPUSim            INFO Probability to add noise to isolated empty strips 3.2331e-08
VeloPUSim.RadDa...WARNING VeloRadDamageTool:: The WARNING message is suppressed : 'Missing M2 coupling conditions using default values'
DigiTTSeq            INFO Member list: MCSTDepositCreator/MCTTDepositCreator, MCSTDigitCreator/MCTTDigitCreator, STDigitCreator/TTDigitCreator, STClusterCreator/TTClusterCreator, STClusterKiller/TTClusterKiller, STClustersToRawBankAlg/createTTRawBuffer
MagneticFieldSvc     INFO Opened magnetic field file : /afs/cern.ch/lhcb/software/DEV/nightlies/DBASE/FieldMap/v5r7/cdf/c1_onemap_down.cdf
MagneticFieldSvc     INFO Opened magnetic field file : /afs/cern.ch/lhcb/software/DEV/nightlies/DBASE/FieldMap/v5r7/cdf/c2_onemap_down.cdf
MagneticFieldSvc     INFO Opened magnetic field file : /afs/cern.ch/lhcb/software/DEV/nightlies/DBASE/FieldMap/v5r7/cdf/c3_onemap_down.cdf
MagneticFieldSvc     INFO Opened magnetic field file : /afs/cern.ch/lhcb/software/DEV/nightlies/DBASE/FieldMap/v5r7/cdf/c4_onemap_down.cdf
MagneticFieldSvc     INFO Map scaled by factor 1 with polarity internally used: -1 signed relative current: -1
TTClusterCreator     INFO Loading cuts tagged as Data10
ToolSvc.TTKiller     INFO Adding Tool: type: STRndmEffSelector / name: Selector
DigiITSeq            INFO Member list: MCSTDepositCreator/MCITDepositCreator, MCSTDigitCreator/MCITDigitCreator, STDigitCreator/ITDigitCreator, STClusterCreator/ITClusterCreator, STClusterKiller/ITClusterKiller, STClustersToRawBankAlg/createITRawBuffer
ITClusterCreator     INFO Loading cuts tagged as Data10
ToolSvc.ITKiller     INFO Adding Tool: type: STRndmEffSelector / name: Selector
DigiOTSeq            INFO Member list: MCOTDepositCreator, MCOTTimeCreator, OTFillRawBuffer
ToolSvc.OTRando...   INFO ******** Noise Settings ********
ToolSvc.OTRando...   INFO Number of channels: 55296
ToolSvc.OTRando...   INFO Noise rate: 1e-05
ToolSvc.OTRando...   INFO Width of read out gate in ns75
ToolSvc.OTRando...   INFO Dead time : 25
ToolSvc.OTRando...   INFO Number of deposits to generate: 55
ToolSvc.OTRando...   INFO ********************************
DigiRichSeq          INFO Member list: Rich::MC::Digi::Signal/RichPDSignal, Rich::MC::Digi::SimpleChargeSharing/RichChargeShare, Rich::MC::Digi::SummedDeposits/RichSummedDeposits, Rich::MC::Digi::DetailedFrontEndResponse/RichPDResponse, Rich::MC::Digi::MCRichDigitsToRawBufferAlg/RichFillRawBuffer
RichChargeShare      INFO Will add charge sharing at 2.5 % level
ToolSvc.RichSma...   INFO Created active PD channel list : # channels RICH(1/2) = 167776 / 246528
RichPDResponse       INFO Time Calibration (Rich1/RICH2) = [10, 6]
ToolSvc.RichRaw...   INFO Using [DAQ/RawEvent] as search path for the RawEvent object
RichFillRawBuffer    INFO Using RICH Level1 buffer format : 129
DigiCaloSeq          INFO Member list: CaloSignalAlg/SpdSignal, CaloSignalAlg/PrsSignal, CaloSignalAlg/EcalSignal, CaloSignalAlg/HcalSignal, CaloDigitAlg/SpdDigit, CaloDigitAlg/PrsDigit, CaloDigitAlg/EcalDigit, CaloDigitAlg/HcalDigit, CaloFillPrsSpdRawBuffer, CaloFillRawBuffer/EcalFillRawBuffer, CaloFillRawBuffer/HcalFillRawBuffer
SpdSignal            INFO Initialised. Store also previous BX.
PrsSignal            INFO Initialised. Store also previous BX.
EcalSignal           INFO Initialised.
HcalSignal           INFO Initialised.
SpdDigit             INFO ----- Detector parameters (from condDB) ------------------
SpdDigit             INFO Nominal gain parameters for    Outer region :    0.0 +   2.5 x sin(theta)
SpdDigit             INFO Nominal gain parameters for   Middle region :    0.0 +   2.5 x sin(theta)
SpdDigit             INFO Nominal gain parameters for    Inner region :    0.0 +   2.5 x sin(theta)
SpdDigit             INFO Noise          :   0.0 +   0.0 (coherent) counts.
SpdDigit             INFO Pedestal shift :  0.00 counts
SpdDigit             INFO Actual dynamics saturation :   0.90 x ADCMax
SpdDigit             INFO Subtract 0.2000 of previous BX
SpdDigit             INFO  MIP deposit    :   2.54 MeV
SpdDigit             INFO Number of photo-electrons per MIP for    Outer region :   22.00
SpdDigit             INFO Number of photo-electrons per MIP for   Middle region :   32.00
SpdDigit             INFO Number of photo-electrons per MIP for    Inner region :   27.00
SpdDigit             INFO Zero-suppression threshold :   0.50 ADC
SpdDigit             INFO L0 trigger suppression     :   0.50 ADC
SpdDigit             INFO L0 trigger ADC correction for    Outer region :    1.00
SpdDigit             INFO L0 trigger ADC correction for   Middle region :    1.00
SpdDigit             INFO L0 trigger ADC correction for    Inner region :    1.00
SpdDigit             INFO ----- Digitization parameters (from CaloDigitAlg configuration) ------------------
SpdDigit             INFO Additional  0.0% of the cells as dead (gain=0).
SpdDigit             INFO Additional gain error  0.0%
PrsDigit             INFO ----- Detector parameters (from condDB) ------------------
PrsDigit             INFO Nominal gain parameters for    Outer region :    0.0 + 280.6 x sin(theta)
PrsDigit             INFO Nominal gain parameters for   Middle region :    0.0 + 280.6 x sin(theta)
PrsDigit             INFO Nominal gain parameters for    Inner region :    0.0 + 280.6 x sin(theta)
PrsDigit             INFO Noise          :   1.0 +   0.0 (coherent) counts.
PrsDigit             INFO Pedestal shift :  0.00 counts
PrsDigit             INFO Actual dynamics saturation :   0.90 x ADCMax
PrsDigit             INFO Subtract 0.1500 of previous BX
PrsDigit             INFO  MIP deposit    :   2.74 MeV
PrsDigit             INFO Number of photo-electrons per MIP for    Outer region :   22.00
PrsDigit             INFO Number of photo-electrons per MIP for   Middle region :   32.00
PrsDigit             INFO Number of photo-electrons per MIP for    Inner region :   27.00
PrsDigit             INFO Zero-suppression threshold :   5.00 ADC
PrsDigit             INFO L0 trigger suppression     :  50.00 ADC
PrsDigit             INFO L0 trigger ADC correction for    Outer region :    1.00
PrsDigit             INFO L0 trigger ADC correction for   Middle region :    1.00
PrsDigit             INFO L0 trigger ADC correction for    Inner region :    1.00
PrsDigit             INFO ----- Digitization parameters (from CaloDigitAlg configuration) ------------------
PrsDigit             INFO Additional  0.0% of the cells as dead (gain=0).
PrsDigit             INFO Additional gain error  1.0%
EcalDigit            INFO ----- Detector parameters (from condDB) ------------------
EcalDigit            INFO Nominal gain parameters for    Outer region :  10000.0 + 7000.0 x sin(theta)
EcalDigit            INFO Nominal gain parameters for   Middle region :  10000.0 + 7000.0 x sin(theta)
EcalDigit            INFO Nominal gain parameters for    Inner region :  10000.0 + 7000.0 x sin(theta)
EcalDigit            INFO Noise          :   1.2 +   0.3 (coherent) counts.
EcalDigit            INFO Pedestal shift :  0.40 counts
EcalDigit            INFO Actual dynamics saturation :   0.95 x ADCMax
EcalDigit            INFO L0 trigger suppression     :   0.50 ADC
EcalDigit            INFO L0 trigger ADC correction for    Outer region :    1.00
EcalDigit            INFO L0 trigger ADC correction for   Middle region :    1.04
EcalDigit            INFO L0 trigger ADC correction for    Inner region :    1.08
EcalDigit            INFO ----- Digitization parameters (from CaloDigitAlg configuration) ------------------
EcalDigit            INFO Additional  0.0% of the cells as dead (gain=0).
EcalDigit            INFO Additional gain error  1.0%
HcalDigit            INFO ----- Detector parameters (from condDB) ------------------
HcalDigit            INFO Nominal gain parameters for    Outer region :  15000.0 +   0.0 x sin(theta)
HcalDigit            INFO Nominal gain parameters for    Inner region :  15000.0 +   0.0 x sin(theta)
HcalDigit            INFO Noise          :   1.2 +   0.3 (coherent) counts.
HcalDigit            INFO Pedestal shift :  0.40 counts
HcalDigit            INFO Actual dynamics saturation :   0.95 x ADCMax
HcalDigit            INFO L0 trigger suppression     :   0.50 ADC
HcalDigit            INFO L0 trigger ADC correction for    Outer region :    1.00
HcalDigit            INFO L0 trigger ADC correction for    Inner region :    1.05
HcalDigit            INFO ----- Digitization parameters (from CaloDigitAlg configuration) ------------------
HcalDigit            INFO Additional  0.0% of the cells as dead (gain=0).
HcalDigit            INFO Additional gain error  1.0%
CaloFillPrsSpdR...   INFO Data coding type 3
EcalFillRawBuffer    INFO Processing 192 FE-Cards and 28 TELL1
EcalFillRawBuffer    INFO Data coding type 2
HcalFillRawBuffer    INFO Processing 54 FE-Cards and 8 TELL1
HcalFillRawBuffer    INFO Data coding type 2
DigiMuonSeq          INFO Member list: MuonDigitization, MuonDigitToRawBuffer
Link                 INFO Member list: GaudiSequencer/LinkVeloSeq, GaudiSequencer/LinkTTSeq, GaudiSequencer/LinkITSeq, GaudiSequencer/LinkOTSeq, GaudiSequencer/LinkTrSeq, GaudiSequencer/LinkRichSeq, GaudiSequencer/LinkCaloSeq, GaudiSequencer/LinkMuonSeq
LinkVeloSeq          INFO Member list: DecodeVeloRawBuffer/createVeloClusters, VeloCluster2MCHitLinker, VeloCluster2MCParticleLinker
createVeloClusters   INFO Cancel processing of events with more than 10000 Velo clusters
LinkTTSeq            INFO Member list: STDigit2MCHitLinker/TTDigitLinker, STCluster2MCHitLinker/TTClusterLinker, STCluster2MCParticleLinker/TTTruthLinker
LinkITSeq            INFO Member list: STDigit2MCHitLinker/ITDigitLinker, STCluster2MCHitLinker/ITClusterLinker, STCluster2MCParticleLinker/ITTruthLinker
LinkOTSeq            INFO Member list: OTMCDepositLinker, OTMCHitLinker, OTMCParticleLinker
LinkTrSeq            INFO Member list: BuildMCTrackInfo
LinkRichSeq          INFO Member list: Rich::MC::MCRichDigitSummaryAlg
Rich::MC::MCRic...   INFO Will only store MCParticle references for main event
LinkCaloSeq          INFO Member list: CaloDigitsFromRaw/EcalFromRaw, CaloDigitsFromRaw/HcalFromRaw, CaloReCreateMCLinks, CaloDigitMCTruth/EcalDigitMCTruth, CaloDigitMCTruth/HcalDigitMCTruth
LinkMuonSeq          INFO Member list: MuonDigit2MCParticleAlg, MuonTileDigitInfo
Moni                 INFO Member list: GaudiSequencer/MoniVeloSeq, GaudiSequencer/MoniTTSeq, GaudiSequencer/MoniITSeq, GaudiSequencer/MoniOTSeq, GaudiSequencer/MoniRichSeq, GaudiSequencer/MoniCaloSeq, GaudiSequencer/MoniMuonSeq, GaudiSequencer/MoniMCSeq
MoniVeloSeq          INFO Member list: VeloSimMoni, VeloRawClustersMoni
MoniTTSeq            INFO Member list: MCSTDepositMonitor/MCTTDepositMonitor, MCSTDigitMonitor/MCTTDigitMonitor, STDigitMonitor/TTDigitMonitor, ST::STClusterMonitor/TTClusterMonitor, MCParticle2MCHitAlg/MCP2TTMCHitAlg, STEffChecker/TTEffChecker
TTEffChecker.MC...   INFO MCParticle Momentum cut     : 1 GeV/c < P < 1.79769e+308 GeV/c
TTEffChecker.MC...   INFO            Beta * gamma cut : 1 < beta*gamma
TTEffChecker.MC...   INFO            Eta cut          : -1.79769e+308 < P < 1.79769e+308
MoniITSeq            INFO Member list: MCSTDepositMonitor/MCITDepositMonitor, MCSTDigitMonitor/MCITDigitMonitor, STDigitMonitor/ITDigitMonitor, ST::STClusterMonitor/ITClusterMonitor, MCParticle2MCHitAlg/MCP2ITMCHitAlg, STEffChecker/ITEffChecker
ITEffChecker.MC...   INFO MCParticle Momentum cut     : 1 GeV/c < P < 1.79769e+308 GeV/c
ITEffChecker.MC...   INFO            Beta * gamma cut : 1 < beta*gamma
ITEffChecker.MC...   INFO            Eta cut          : -1.79769e+308 < P < 1.79769e+308
MoniOTSeq            INFO Member list: MCOTDepositMonitor
MoniRichSeq          INFO Member list: Rich::MC::Digi::DigitQC/RiDigitQC
MoniCaloSeq          INFO Member list: CaloDigitChecker/SpdCheck, CaloDigitChecker/PrsCheck, CaloDigitChecker/EcalCheck, CaloDigitChecker/HcalCheck
SpdCheck             INFO Monitoring Hits MC/Spd/Hits   MC Digit   MC/Spd/Digits   Digit   Raw/Spd/Digits, Histograms booked
PrsCheck             INFO Monitoring Hits MC/Prs/Hits   MC Digit   MC/Prs/Digits   Digit   Raw/Prs/Digits, Histograms booked
EcalCheck            INFO Monitoring Hits MC/Ecal/Hits   MC Digit   MC/Ecal/Digits   Digit   Raw/Ecal/Digits, Histograms booked
HcalCheck            INFO Monitoring Hits MC/Hcal/Hits   MC Digit   MC/Hcal/Digits   Digit   Raw/Hcal/Digits, Histograms booked
MoniMuonSeq          INFO Member list: MuonDigitChecker
MoniMCSeq            INFO Member list:
Filter               INFO OR Member list:
PrepareDIGI          INFO Member list:
FileRecordPersi...   INFO Added successfully Conversion service:FileRecordCnvSvc
FSROutputStream...   INFO Data source: FileRecordDataSvc output: DATAFILE='PFN:Gauss-10000000-100ev-20111014-10ev.digi' SVC='FileRecordCnvSvc' OPT='REC'
EventPersistenc...   INFO Added successfully Conversion service:RootCnvSvc
DigiWriter           INFO Data source: EventDataSvc output: DATAFILE='PFN:Gauss-10000000-100ev-20111014-10ev.digi' SVC='RootCnvSvc' OPT='REC'
EventPersistenc...   INFO Added successfully Conversion service:LHCb::RawDataCnvSvc
RawWriter            INFO Data source: EventDataSvc output: DATAFILE='PFN:Gauss-10000000-100ev-20111014-10ev.mdf' SVC='LHCb::RawDataCnvSvc' OPT='REC'
EventSelector        INFO Stream:EventSelector.DataStreamTool_1 Def:DATAFILE='root://eoslhcb.cern.ch//eos/lhcb/grid/prod/lhcb/swtest/lhcb/swtest/boole.boole-mc11/Gauss-10000000-100ev-20111014.sim' SVC='Gaudi::RootEvtSelector' OPT='READ'
ApplicationMgr       INFO Application Manager Initialized successfully
ApplicationMgr       INFO Application Manager Started successfully
BooleInit            INFO Evt 1,  Run 1082,  Nr. in job = 1
MuonFlatSpillover    INFO  luminosity factor 1.60056 compared to default 2*10^32 cm-2 s-1
VeloSimTell1Clu...   INFO  ==> CLUSTER_MAKER Configured  type: TELL1 Cluster Maker
VeloSimTell1Clu...   INFO  --> Creating dynamic config for Cluster Maker!
VeloSimTell1Clu...   INFO  --> Thresholds calculated usign SIMCOND data base
VeloSimTell1Clu...   INFO  --> Algorithm CLUSTER_MAKER of type: TELL1 Cluster Maker is enabled and ready to process data --
IODataManager        INFO Referring to dataset Gauss-10000000-100ev-20111014-10ev.digi by its file ID:8AA2976C-2B89-E611-86D4-02163E017C4E
IODataManager        INFO Referring to dataset Gauss-10000000-100ev-20111014-10ev.mdf by its file ID:B445B36F-2B89-E611-86D4-02163E017C4E
LHCb::RawDataCn...   INFO Opened(NEW)  MDF stream:PFN:Gauss-10000000-100ev-20111014-10ev.mdf ID:0x1e3f0300
BooleInit            INFO Evt 2,  Run 1082,  Nr. in job = 2
BooleInit            INFO Evt 3,  Run 1082,  Nr. in job = 3
BooleInit            INFO Evt 4,  Run 1082,  Nr. in job = 4
BooleInit            INFO Evt 5,  Run 1082,  Nr. in job = 5
BooleInit            INFO Evt 6,  Run 1082,  Nr. in job = 6
BooleInit            INFO Evt 7,  Run 1082,  Nr. in job = 7
BooleInit            INFO Evt 8,  Run 1082,  Nr. in job = 8
BooleInit            INFO Evt 9,  Run 1082,  Nr. in job = 9
BooleInit            INFO Evt 10,  Run 1082,  Nr. in job = 10
ApplicationMgr       INFO Application Manager Stopped successfully
UnpackMCMuonHits  SUCCESS Number of counters : 1
 |    Counter                                      |     #     |    sum     | mean/eff^* | rms/err^*  |     min     |     max     |
 | "# UnPackedData"                                |        10 |       4418 |     441.80 |     140.77 |      177.00 |      628.00 |
UnpackMCVeloHits  SUCCESS Number of counters : 1
 |    Counter                                      |     #     |    sum     | mean/eff^* | rms/err^*  |     min     |     max     |
 | "# UnPackedData"                                |        10 |      16018 |     1601.8 |     389.99 |      1004.0 |      2218.0 |
UnpackMCPuVetoHitsSUCCESS Number of counters : 1
 |    Counter                                      |     #     |    sum     | mean/eff^* | rms/err^*  |     min     |     max     |
 | "# UnPackedData"                                |        10 |        600 |     60.000 |     16.511 |      41.000 |      100.00 |
UnpackMCTTHits    SUCCESS Number of counters : 1
 |    Counter                                      |     #     |    sum     | mean/eff^* | rms/err^*  |     min     |     max     |
 | "# UnPackedData"                                |        10 |       5334 |     533.40 |     170.36 |      273.00 |      802.00 |
UnpackMCITHits    SUCCESS Number of counters : 1
 |    Counter                                      |     #     |    sum     | mean/eff^* | rms/err^*  |     min     |     max     |
 | "# UnPackedData"                                |        10 |       4595 |     459.50 |     201.57 |      105.00 |      729.00 |
UnpackMCOTHits    SUCCESS Number of counters : 1
 |    Counter                                      |     #     |    sum     | mean/eff^* | rms/err^*  |     min     |     max     |
 | "# UnPackedData"                                |        10 |      13087 |     1308.7 |     485.95 |      614.00 |      2032.0 |
UnpackMCRichHits  SUCCESS Number of counters : 1
 |    Counter                                      |     #     |    sum     | mean/eff^* | rms/err^*  |     min     |     max     |
 | "# UnPackedData"                                |        10 |      39156 |     3915.6 |     1562.4 |      1920.0 |      7822.0 |
UnpackMCSpdHits   SUCCESS Number of counters : 1
 |    Counter                                      |     #     |    sum     | mean/eff^* | rms/err^*  |     min     |     max     |
 | "# UnPackedData"                                |        10 |      16071 |     1607.1 |     500.70 |      671.00 |      2170.0 |
UnpackMCPrsHits   SUCCESS Number of counters : 1
 |    Counter                                      |     #     |    sum     | mean/eff^* | rms/err^*  |     min     |     max     |
 | "# UnPackedData"                                |        10 |      30641 |     3064.1 |     915.89 |      1487.0 |      4486.0 |
UnpackMCEcalHits  SUCCESS Number of counters : 1
 |    Counter                                      |     #     |    sum     | mean/eff^* | rms/err^*  |     min     |     max     |
 | "# UnPackedData"                                |        10 |      40304 |     4030.4 |     1203.4 |      1741.0 |      6097.0 |
UnpackMCHcalHits  SUCCESS Number of counters : 1
 |    Counter                                      |     #     |    sum     | mean/eff^* | rms/err^*  |     min     |     max     |
 | "# UnPackedData"                                |        10 |       5280 |     528.00 |     196.50 |      166.00 |      876.00 |
BooleInit         SUCCESS ==================================================================
BooleInit         SUCCESS 10 events processed
BooleInit         SUCCESS ==================================================================
VeloSim              INFO Removed  0.76% MCVeloFEs due to bad strips and  0.00% as random removals
VeloPUSim            INFO Removed  0.00% MCVeloFEs due to bad strips and  0.45% as random removals
TTClusterKiller      INFO Fraction of clusters killed 0 %
TTClusterKiller   SUCCESS Number of counters : 2
 |    Counter                                      |     #     |    sum     | mean/eff^* | rms/err^*  |     min     |     max     |
 | "Dead"                                          |         0 |          0 |     0.0000 |     0.0000 | 1.7977e+308 |-1.7977e+308 |
 | "Processed"                                     |      4912 |       4912 |     1.0000 |     0.0000 |      1.0000 |      1.0000 |
ITClusterKiller      INFO Fraction of clusters killed 0.294046 %
ITClusterKiller   SUCCESS Number of counters : 2
 |    Counter                                      |     #     |    sum     | mean/eff^* | rms/err^*  |     min     |     max     |
 | "Dead"                                          |        12 |         12 |     1.0000 |     0.0000 |      1.0000 |      1.0000 |
 | "Processed"                                     |      4081 |       4081 |     1.0000 |     0.0000 |      1.0000 |      1.0000 |
RichPDSignal      SUCCESS Number of counters : 1
 |    Counter                                      |     #     |    sum     | mean/eff^* | rms/err^*  |     min     |     max     |
 | "Found MCRichHits at MC/Rich/Hits"              |        10 |         10 |     1.0000 |     0.0000 |      1.0000 |      1.0000 |
CaloFillPrsSpdR...   INFO Average event size :   357.4 words,    85.9 for trigger  Mean bank size    35.7, maximum size    49.6
EcalFillRawBuffer    INFO Average event size :  1624.6 words,  1450.4 for trigger  Mean bank size    58.0, maximum size    70.7
HcalFillRawBuffer    INFO Average event size :   446.1 words,   398.0 for trigger  Mean bank size    55.8, maximum size    73.9
EcalDigitMCTruth  SUCCESS Number of counters : 1
 |    Counter                                      |     #     |    sum     | mean/eff^* | rms/err^*  |     min     |     max     |
 | "#Digit->MC links"                              |        10 |      75780 |     7578.0 |     2086.7 |      3499.0 |      10775. |
HcalDigitMCTruth  SUCCESS Number of counters : 1
 |    Counter                                      |     #     |    sum     | mean/eff^* | rms/err^*  |     min     |     max     |
 | "#Digit->MC links"                              |        10 |       9467 |     946.70 |     392.03 |      240.00 |      1758.0 |
VeloSimMoni          INFO ------------------------------------------------------
VeloSimMoni          INFO                 - VeloSimMoni table -
VeloSimMoni          INFO ------------------------------------------------------
VeloSimMoni          INFO | Number of MCVeloFEs/Event: 2347 +/- 181.554
VeloSimMoni          INFO | FEs from signal:                      95.54%
VeloSimMoni          INFO | FEs from noise:                       1.78%
VeloSimMoni          INFO | FEs from other, coupling + spillover: 2.683%
VeloSimMoni          INFO ------------------------------------------------------
VeloRawClusters...   INFO ======================================================
VeloRawClusters...   INFO               - VeloClusterMoni table -
VeloRawClusters...   INFO ------------------------------------------------------
VeloRawClusters...   INFO | Number of Clusters/Event: 1399.4 +/- 106.238
VeloRawClusters...   INFO | Clusters from signal:                      100%
VeloRawClusters...   INFO | Clusters from noise:                       0%
VeloRawClusters...   INFO | Clusters from other (coupling+spillover):  0%
VeloRawClusters...   INFO ------------------------------------------------------
VeloRawClusters...   INFO               - Size of clusters (all)-
VeloRawClusters...   INFO ------------------------------------------------------
VeloRawClusters...   INFO | 1 strip clusters/event:     852.6 (60.93%)
VeloRawClusters...   INFO | 2 strip clusters/event:     446.6 (31.91%)
VeloRawClusters...   INFO | 3 strip clusters/event:     76.3 (5.45%)
VeloRawClusters...   INFO | 4 strip clusters/event:     23.9 (1.71%)
VeloRawClusters...   INFO ------------------------------------------------------
VeloRawClusters...   INFO               - Association failure -
VeloRawClusters...   INFO ------------------------------------------------------
VeloRawClusters...   INFO  Relative number of un-associated clusters: 0 %
VeloRawClusters...   INFO ======================================================
MCTTDepositMonitorSUCCESS Booked 4 Histogram(s) : 1D=4
MCTTDigitMonitor  SUCCESS Booked 4 Histogram(s) : 1D=4
TTDigitMonitor    SUCCESS Booked 4 Histogram(s) : 1D=4
TTClusterMonitor  SUCCESS Booked 18 Histogram(s) : 1D=13 2D=4 1DProf=1
TTClusterMonitor  SUCCESS Number of counters : 1
 |    Counter                                      |     #     |    sum     | mean/eff^* | rms/err^*  |     min     |     max     |
 | "Number of events"                              |        10 |         10 |     1.0000 |     0.0000 |      1.0000 |      1.0000 |
TTEffChecker         INFO  -------Efficiency %---------
TTEffChecker         INFO TTaX eff 99.284 +/- 0.411895
TTEffChecker         INFO TTaU eff 99.5305 +/- 0.331195
TTEffChecker         INFO TTbX eff 99.0385 +/- 0.478452
TTEffChecker         INFO TTbV eff 99.2736 +/- 0.417857
TTEffChecker         INFO  -----------------------
TTEffChecker      SUCCESS Booked 24 Histogram(s) : 1D=16 2D=8
MCITDepositMonitorSUCCESS Booked 4 Histogram(s) : 1D=4
MCITDigitMonitor  SUCCESS Booked 4 Histogram(s) : 1D=4
ITDigitMonitor    SUCCESS Booked 4 Histogram(s) : 1D=4
ITClusterMonitor  SUCCESS Booked 14 Histogram(s) : 1D=9 2D=4 1DProf=1
ITClusterMonitor  SUCCESS Number of counters : 1
 |    Counter                                      |     #     |    sum     | mean/eff^* | rms/err^*  |     min     |     max     |
 | "Number of events"                              |        10 |         10 |     1.0000 |     0.0000 |      1.0000 |      1.0000 |
ITEffChecker         INFO  -------Efficiency %---------
ITEffChecker         INFO IT1TopX1 eff 93.3333 +/- 6.44061
ITEffChecker         INFO IT1TopU eff 100 +/- 0
ITEffChecker         INFO IT1TopV eff 87.5 +/- 8.26797
ITEffChecker         INFO IT1TopX2 eff 100 +/- 0
ITEffChecker         INFO IT1BottomX1 eff 100 +/- 0
ITEffChecker         INFO IT1BottomU eff 80.9524 +/- 8.56891
ITEffChecker         INFO IT1BottomV eff 100 +/- 0
ITEffChecker         INFO IT1BottomX2 eff 95.4545 +/- 4.44095
ITEffChecker         INFO IT1ASideX1 eff 100 +/- 0
ITEffChecker         INFO IT1ASideU eff 100 +/- 0
ITEffChecker         INFO IT1ASideV eff 100 +/- 0
ITEffChecker         INFO IT1ASideX2 eff 97.7273 +/- 2.24675
ITEffChecker         INFO IT1CSideX1 eff 97.4359 +/- 2.53102
ITEffChecker         INFO IT1CSideU eff 97.3684 +/- 2.59672
ITEffChecker         INFO IT1CSideV eff 87.5 +/- 5.22913
ITEffChecker         INFO IT1CSideX2 eff 100 +/- 0
ITEffChecker         INFO IT2TopX1 eff 100 +/- 0
ITEffChecker         INFO IT2TopU eff 92.3077 +/- 7.39053
ITEffChecker         INFO IT2TopV eff 100 +/- 0
ITEffChecker         INFO IT2TopX2 eff 100 +/- 0
ITEffChecker         INFO IT2BottomX1 eff 100 +/- 0
ITEffChecker         INFO IT2BottomU eff 100 +/- 0
ITEffChecker         INFO IT2BottomV eff 100 +/- 0
ITEffChecker         INFO IT2BottomX2 eff 100 +/- 0
ITEffChecker         INFO IT2ASideX1 eff 100 +/- 0
ITEffChecker         INFO IT2ASideU eff 97.3684 +/- 2.59672
ITEffChecker         INFO IT2ASideV eff 97.4359 +/- 2.53102
ITEffChecker         INFO IT2ASideX2 eff 100 +/- 0
ITEffChecker         INFO IT2CSideX1 eff 100 +/- 0
ITEffChecker         INFO IT2CSideU eff 100 +/- 0
ITEffChecker         INFO IT2CSideV eff 100 +/- 0
ITEffChecker         INFO IT2CSideX2 eff 100 +/- 0
ITEffChecker         INFO IT3TopX1 eff 90 +/- 9.48683
ITEffChecker         INFO IT3TopU eff 100 +/- 0
ITEffChecker         INFO IT3TopV eff 100 +/- 0
ITEffChecker         INFO IT3TopX2 eff 100 +/- 0
ITEffChecker         INFO IT3BottomX1 eff 100 +/- 0
ITEffChecker         INFO IT3BottomU eff 100 +/- 0
ITEffChecker         INFO IT3BottomV eff 100 +/- 0
ITEffChecker         INFO IT3BottomX2 eff 100 +/- 0
ITEffChecker         INFO IT3ASideX1 eff 100 +/- 0
ITEffChecker         INFO IT3ASideU eff 100 +/- 0
ITEffChecker         INFO IT3ASideV eff 84.8485 +/- 6.24156
ITEffChecker         INFO IT3ASideX2 eff 100 +/- 0
ITEffChecker         INFO IT3CSideX1 eff 100 +/- 0
ITEffChecker         INFO IT3CSideU eff 92.5926 +/- 5.0401
ITEffChecker         INFO IT3CSideV eff 100 +/- 0
ITEffChecker         INFO IT3CSideX2 eff 100 +/- 0
ITEffChecker         INFO  -----------------------
ITEffChecker      SUCCESS Booked 288 Histogram(s) : 1D=192 2D=96
MCOTDepositMonitorSUCCESS Booked 31 Histogram(s) : 1D=27 2D=4
RiDigitQC            INFO ===============================================================================================
RiDigitQC            INFO                             RICH Digitisation Simulation Summary
RiDigitQC            INFO -----------------------------------------------------------------------------------------------
RiDigitQC            INFO  Rich1 : Av. total  hit occupancy      1889.30 +-13.75 hits/event
RiDigitQC            INFO        : Av. signal hit occupancy      1218.10 +-11.04 hits/event
RiDigitQC            INFO        :   /Event/MC/Rich/Hits          100.00 +- 0.00 % of total, 100.00 +- 0.00 % signal eff.
RiDigitQC            INFO        : Av. HPD hit occupancy            9.64 +- 0.07 hits/event
RiDigitQC            INFO        :   Min Av. HPD occ. hID=650005    0.10 +- 0.10 hits/event
RiDigitQC            INFO        :   Max Av. HPD occ. hID=646005   44.10 +- 2.10 hits/event
RiDigitQC            INFO        : % overall background hits       35.53 +- 0.35 %
RiDigitQC            INFO        :   % rayleigh scattered hits      1.71 +- 0.09 %
RiDigitQC            INFO        :   % charged track on HPD hits    0.00 +- 0.00 %
RiDigitQC            INFO        :   % gas quartz window CK hits    5.15 +- 0.16 %
RiDigitQC            INFO        :   % hpd quartz window CK hits   21.35 +- 0.30 %
RiDigitQC            INFO        :   % nitrogen CK hits             0.07 +- 0.02 %
RiDigitQC            INFO        :   % aerogel filter CK hits       0.06 +- 0.02 %
RiDigitQC            INFO        :   % silicon back-scatter hits    0.59 +- 0.06 %
RiDigitQC            INFO        :   % internal reflection hits    18.48 +- 0.28 %
RiDigitQC            INFO        :   % silicon charge share hits    1.60 +- 0.09 %
RiDigitQC            INFO -----------------------------------------------------------------------------------------------
RiDigitQC            INFO  Rich2 : Av. total  hit occupancy      1086.80 +-10.42 hits/event
RiDigitQC            INFO        : Av. signal hit occupancy       611.70 +- 7.82 hits/event
RiDigitQC            INFO        :   /Event/MC/Rich/Hits          100.00 +- 0.00 % of total, 100.00 +- 0.00 % signal eff.
RiDigitQC            INFO        : Av. HPD hit occupancy            4.44 +- 0.04 hits/event
RiDigitQC            INFO        :   Min Av. HPD occ. hID=518009    0.10 +- 0.10 hits/event
RiDigitQC            INFO        :   Max Av. HPD occ. hID=714009   11.90 +- 1.09 hits/event
RiDigitQC            INFO        : % overall background hits       43.72 +- 0.48 %
RiDigitQC            INFO        :   % rayleigh scattered hits      0.00 +- 0.00 %
RiDigitQC            INFO        :   % charged track on HPD hits    0.00 +- 0.00 %
RiDigitQC            INFO        :   % gas quartz window CK hits    3.43 +- 0.17 %
RiDigitQC            INFO        :   % hpd quartz window CK hits   30.54 +- 0.44 %
RiDigitQC            INFO        :   % nitrogen CK hits             0.01 +- 0.01 %
RiDigitQC            INFO        :   % aerogel filter CK hits       0.00 +- 0.00 %
RiDigitQC            INFO        :   % silicon back-scatter hits    0.63 +- 0.08 %
RiDigitQC            INFO        :   % internal reflection hits    20.78 +- 0.39 %
RiDigitQC            INFO        :   % silicon charge share hits    1.67 +- 0.12 %
RiDigitQC            INFO ===============================================================================================
RiDigitQC         SUCCESS Booked 6 Histogram(s) : 1D=6
SpdCheck          SUCCESS Booked 4 Histogram(s) : 1D=4
PrsCheck          SUCCESS Booked 4 Histogram(s) : 1D=4
EcalCheck         SUCCESS Booked 6 Histogram(s) : 1D=6
HcalCheck         SUCCESS Booked 6 Histogram(s) : 1D=6
MuonDigitChecker     INFO -----------------------------------------------------------------
MuonDigitChecker     INFO        Muon Monitoring Table
MuonDigitChecker     INFO -----------------------------------------------------------------
MuonDigitChecker     INFO -----------------------------------------------------------------
MuonDigitChecker     INFO     Digi Information
MuonDigitChecker     INFO -----------------------------------------------------------------
MuonDigitChecker     INFO -----------------------------------------------------------------
MuonDigitChecker     INFO -----   Container: Geant------------------------
MuonDigitChecker     INFO -----------------------------------------------------------------
MuonDigitChecker     INFO M1     M2     M3     M4     M5
MuonDigitChecker     INFO 43.100  6.900  8.400  1.300  1.800   R1
MuonDigitChecker     INFO 46.500  6.400  1.200  0.800  1.000   R2
MuonDigitChecker     INFO 41.800  3.200  1.600  1.100  1.000   R3
MuonDigitChecker     INFO 49.700  6.400  3.300  1.500  0.600   R4
MuonDigitChecker     INFO -----------------------------------------------------------------
MuonDigitChecker     INFO -----   Container: FlastSpillOver------------------------
MuonDigitChecker     INFO -----------------------------------------------------------------
MuonDigitChecker     INFO M1     M2     M3     M4     M5
MuonDigitChecker     INFO 0.100  1.300  0.500  0.300  0.100   R1
MuonDigitChecker     INFO 0.500  2.900  0.700  0.700  0.900   R2
MuonDigitChecker     INFO 0.500  2.000  0.200  0.400  2.100   R3
MuonDigitChecker     INFO 1.000  2.200  0.000  0.000  1.400   R4
MuonDigitChecker     INFO -----------------------------------------------------------------
MuonDigitChecker     INFO -----   Container: Low Energy Background------------------------
MuonDigitChecker     INFO -----------------------------------------------------------------
MuonDigitChecker     INFO M1     M2     M3     M4     M5
MuonDigitChecker     INFO 0.000  2.200  1.200  0.800  0.400   R1
MuonDigitChecker     INFO 0.000  3.100  1.000  0.300  0.300   R2
MuonDigitChecker     INFO 0.000  1.000  0.000  0.400  0.400   R3
MuonDigitChecker     INFO 0.000  0.400  0.400  0.000  0.200   R4
MuonDigitChecker     INFO -----------------------------------------------------------------
MuonDigitChecker     INFO -----   Container: Chamber Noise------------------------
MuonDigitChecker     INFO -----------------------------------------------------------------
MuonDigitChecker     INFO M1     M2     M3     M4     M5
MuonDigitChecker     INFO 0.000  0.000  0.000  0.000  0.000   R1
MuonDigitChecker     INFO 0.000  0.000  0.000  0.000  0.000   R2
MuonDigitChecker     INFO 0.000  0.000  0.000  0.000  0.000   R3
MuonDigitChecker     INFO 0.000  0.000  0.000  0.000  0.000   R4
MuonDigitChecker     INFO -----------------------------------------------------------------
MuonDigitChecker     INFO -----   Container: Crosstalk------------------------
MuonDigitChecker     INFO -----------------------------------------------------------------
MuonDigitChecker     INFO M1     M2     M3     M4     M5
MuonDigitChecker     INFO 2.800  1.800  0.900  0.300  0.400   R1
MuonDigitChecker     INFO 14.600  0.900  0.200  0.400  1.000   R2
MuonDigitChecker     INFO 8.700  1.000  0.500  0.400  0.100   R3
MuonDigitChecker     INFO 0.900  0.000  0.500  0.000  0.400   R4
MuonDigitChecker     INFO -----------------------------------------------------------------
MuonDigitChecker     INFO -----   Container: Electronic Noise------------------------
MuonDigitChecker     INFO -----------------------------------------------------------------
MuonDigitChecker     INFO M1     M2     M3     M4     M5
MuonDigitChecker     INFO 0.000  0.100  0.000  0.000  0.000   R1
MuonDigitChecker     INFO 0.000  0.000  0.000  0.000  0.000   R2
MuonDigitChecker     INFO 0.000  0.000  0.000  0.000  0.000   R3
MuonDigitChecker     INFO 0.000  0.000  0.000  0.000  0.000   R4
FSROutputStream...   INFO Set up File Summary Record
FSROutputStream...   INFO Events output: 1
DigiWriter           INFO Events output: 10
RawWriter            INFO Events output: 10
EventLoopMgr         INFO Histograms converted successfully according to request.
LHCb::RawDataCn...   INFO Closed connected MDF stream:PFN:Gauss-10000000-100ev-20111014-10ev.mdf ID:0x1e3f0300
RootCnvSvc           INFO Disconnected data IO:02CEC3D6-70F6-E011-9FB6-001E4F3D8360 [root://eoslhcb.cern.ch//eos/lhcb/grid/prod/lhcb/swtest/lhcb/swtest/boole.boole-mc11/Gauss-10000000-100ev-20111014.sim]
RootCnvSvc           INFO Disconnected data IO:8AA2976C-2B89-E611-86D4-02163E017C4E [Gauss-10000000-100ev-20111014-10ev.digi]
ToolSvc              INFO Removing all tools created by ToolSvc
ToolSvc.RichRaw...   INFO ========================================================================================================================
ToolSvc.RichRaw...   INFO                              RICH Level 1 : Encoding Summary : 10 events
ToolSvc.RichRaw...   INFO ------------------------------------------------------------------------------------------------------------------------
ToolSvc.RichRaw...   INFO  Rich2 L1ID(hard/log)  1/ 8 V129 | L1 size =   9.70 +- 0.98 pds :   37.50 +- 1.94 words :   44.50 +- 2.11 hits / event
ToolSvc.RichRaw...   INFO  Rich2 L1ID(hard/log)  2/12 V129 | L1 size =   8.90 +- 0.94 pds :   37.70 +- 1.94 words :   54.40 +- 2.33 hits / event
ToolSvc.RichRaw...   INFO ------------------------------------------------------------------------------------------------------------------------
ToolSvc.RichRaw...   INFO  Rich1 L1ID(hard/log)  3/ 1 V129 | L1 size =  31.00 +- 1.76 pds :  147.70 +- 3.84 words :  278.00 +- 5.27 hits / event
ToolSvc.RichRaw...   INFO ------------------------------------------------------------------------------------------------------------------------
ToolSvc.RichRaw...   INFO  Rich2 L1ID(hard/log)  4/ 6 V129 | L1 size =   8.90 +- 0.94 pds :   48.90 +- 2.21 words :   84.90 +- 2.91 hits / event
ToolSvc.RichRaw...   INFO  Rich2 L1ID(hard/log)  5/ 7 V129 | L1 size =   9.30 +- 0.96 pds :   42.60 +- 2.06 words :   60.20 +- 2.45 hits / event
ToolSvc.RichRaw...   INFO  Rich2 L1ID(hard/log)  6/ 3 V129 | L1 size =   8.30 +- 0.91 pds :   48.40 +- 2.20 words :   94.20 +- 3.07 hits / event
ToolSvc.RichRaw...   INFO  Rich2 L1ID(hard/log)  7/11 V129 | L1 size =   7.30 +- 0.85 pds :   28.50 +- 1.69 words :   35.30 +- 1.88 hits / event
ToolSvc.RichRaw...   INFO  Rich2 L1ID(hard/log)  8/ 2 V129 | L1 size =   9.00 +- 0.95 pds :   48.20 +- 2.20 words :   81.60 +- 2.86 hits / event
ToolSvc.RichRaw...   INFO  Rich2 L1ID(hard/log)  9/ 1 V129 | L1 size =  10.00 +- 1.00 pds :   53.10 +- 2.30 words :   83.10 +- 2.88 hits / event
ToolSvc.RichRaw...   INFO  Rich2 L1ID(hard/log) 10/13 V129 | L1 size =  12.30 +- 1.11 pds :   50.40 +- 2.24 words :   76.50 +- 2.77 hits / event
ToolSvc.RichRaw...   INFO  Rich2 L1ID(hard/log) 11/ 4 V129 | L1 size =   7.50 +- 0.87 pds :   31.80 +- 1.78 words :   48.40 +- 2.20 hits / event
ToolSvc.RichRaw...   INFO  Rich2 L1ID(hard/log) 12/ 5 V129 | L1 size =   8.40 +- 0.92 pds :   36.50 +- 1.91 words :   50.90 +- 2.26 hits / event
ToolSvc.RichRaw...   INFO ------------------------------------------------------------------------------------------------------------------------
ToolSvc.RichRaw...   INFO  Rich1 L1ID(hard/log) 13/ 2 V129 | L1 size =  27.50 +- 1.66 pds :  115.00 +- 3.39 words :  204.50 +- 4.52 hits / event
ToolSvc.RichRaw...   INFO  Rich1 L1ID(hard/log) 14/ 3 V129 | L1 size =  22.10 +- 1.49 pds :  130.10 +- 3.61 words :  260.70 +- 5.11 hits / event
ToolSvc.RichRaw...   INFO ------------------------------------------------------------------------------------------------------------------------
ToolSvc.RichRaw...   INFO  Rich2 L1ID(hard/log) 15/14 V129 | L1 size =   8.80 +- 0.94 pds :   47.30 +- 2.17 words :   89.00 +- 2.98 hits / event
ToolSvc.RichRaw...   INFO ------------------------------------------------------------------------------------------------------------------------
ToolSvc.RichRaw...   INFO  Rich1 L1ID(hard/log) 16/ 4 V129 | L1 size =  12.10 +- 1.10 pds :   80.30 +- 2.83 words :  154.70 +- 3.93 hits / event
ToolSvc.RichRaw...   INFO  Rich1 L1ID(hard/log) 17/ 5 V129 | L1 size =  15.90 +- 1.26 pds :  122.00 +- 3.49 words :  271.60 +- 5.21 hits / event
ToolSvc.RichRaw...   INFO  Rich1 L1ID(hard/log) 18/ 6 V129 | L1 size =  26.70 +- 1.63 pds :  152.10 +- 3.90 words :  268.40 +- 5.18 hits / event
ToolSvc.RichRaw...   INFO ------------------------------------------------------------------------------------------------------------------------
ToolSvc.RichRaw...   INFO  Rich2 L1ID(hard/log) 19/15 V129 | L1 size =  10.30 +- 1.01 pds :   51.00 +- 2.26 words :  100.60 +- 3.17 hits / event
ToolSvc.RichRaw...   INFO ------------------------------------------------------------------------------------------------------------------------
ToolSvc.RichRaw...   INFO  Rich1 L1ID(hard/log) 20/ 7 V129 | L1 size =  25.90 +- 1.61 pds :  128.40 +- 3.58 words :  225.50 +- 4.75 hits / event
ToolSvc.RichRaw...   INFO ------------------------------------------------------------------------------------------------------------------------
ToolSvc.RichRaw...   INFO  Rich2 L1ID(hard/log) 21/16 V129 | L1 size =   8.10 +- 0.90 pds :   38.70 +- 1.97 words :   65.00 +- 2.55 hits / event
ToolSvc.RichRaw...   INFO  Rich2 L1ID(hard/log) 22/ 9 V129 | L1 size =   9.60 +- 0.98 pds :   43.30 +- 2.08 words :   71.90 +- 2.68 hits / event
ToolSvc.RichRaw...   INFO ------------------------------------------------------------------------------------------------------------------------
ToolSvc.RichRaw...   INFO  Rich1 L1ID(hard/log) 23/ 8 V129 | L1 size =   5.00 +- 0.71 pds :   90.50 +- 3.01 words :  225.90 +- 4.75 hits / event
ToolSvc.RichRaw...   INFO ------------------------------------------------------------------------------------------------------------------------
ToolSvc.RichRaw...   INFO  Rich2 L1ID(hard/log) 24/10 V129 | L1 size =   9.00 +- 0.95 pds :   36.50 +- 1.91 words :   46.30 +- 2.15 hits / event
ToolSvc.RichRaw...   INFO ------------------------------------------------------------------------------------------------------------------------
ToolSvc.RichRaw...   INFO  Rich1 Average                   | L1 size = 166.20 +- 4.08 pds :  966.10 +- 9.83 words : 1889.30 +-13.75 hits / event
ToolSvc.RichRaw...   INFO  Rich2 Average                   | L1 size = 145.40 +- 3.81 pds :  680.40 +- 8.25 words : 1086.80 +-10.42 hits / event
ToolSvc.RichRaw...   INFO ========================================================================================================================
VeloPUSim.RadDa...SUCCESS Exceptions/Errors/Warnings/Infos Statistics : 0/0/1/0
VeloPUSim.RadDa...SUCCESS  #WARNINGS   = 84       Message = 'Missing M2 coupling conditions using default values'
VeloSim.RadDamage SUCCESS Exceptions/Errors/Warnings/Infos Statistics : 0/0/1/0
VeloSim.RadDamage SUCCESS  #WARNINGS   = 84       Message = 'Missing M2 coupling conditions using default values'
BooleInit.Boole...SUCCESS Booked 4 Histogram(s) : 1D=4
BooleInit.Boole...SUCCESS Number of counters : 2
 |    Counter                                      |     #     |    sum     | mean/eff^* | rms/err^*  |     min     |     max     |
 | "Delta Memory/MB"                               |         9 |    135.112 |     15.012 |     40.403 |      0.0000 |      129.21 |
 | "Total Memory/MB"                               |        10 |   15750.18 |     1575.0 |     40.233 |      1454.5 |      1589.6 |
ToolSvc.OTChann...SUCCESS Exceptions/Errors/Warnings/Infos Statistics : 0/0/1/0
ToolSvc.OTChann...SUCCESS  #WARNINGS   = 1        Message = 'Updating OT channel map for bank version 3 [OTFillRawBuffer]'
TimingAuditor.T...   INFO --------------------------------------------------------------------------------------------------
TimingAuditor.T...   INFO This machine has a speed about   3.19 times the speed of a 2.8 GHz Xeon.
TimingAuditor.T...   INFO Algorithm          (millisec) |    <user> |   <clock> |      min       max    sigma | entries | total (s) |
TimingAuditor.T...   INFO --------------------------------------------------------------------------------------------------
TimingAuditor.T...   INFO EVENT LOOP                    |  2128.582 |  3505.600 |  461.972   13246.7  3719.59 |      10 |    35.056 |
TimingAuditor.T...   INFO  BooleSequencer               |   267.881 |  1272.137 |  112.957   10508.1  3249.75 |      10 |    12.721 |
TimingAuditor.T...   INFO   Init                        |    45.056 |   312.284 |    5.100    2729.7   855.54 |      10 |     3.123 |
TimingAuditor.T...   INFO    InitBooleSeq               |     4.752 |    91.060 |    0.718     871.1   274.28 |      10 |     0.911 |
TimingAuditor.T...   INFO     BooleInit                 |     3.758 |    44.742 |    0.370     411.5   129.26 |      10 |     0.447 |
TimingAuditor.T...   INFO     SpilloverHandler          |     0.972 |    46.293 |    0.275     459.6   145.23 |      10 |     0.463 |
TimingAuditor.T...   INFO      SpilloverLoader          |     0.944 |    46.256 |    0.243     459.6   145.22 |      10 |     0.463 |
TimingAuditor.T...   INFO      SpilloverKiller          |     0.011 |     0.014 |    0.011       0.0     0.01 |      10 |     0.000 |
TimingAuditor.T...   INFO    InitDataSeq                |     0.001 |     0.005 |    0.005       0.0     0.00 |      10 |     0.000 |
TimingAuditor.T...   INFO    InitMuonSeq                |    40.287 |   221.197 |    4.348    1858.5   582.63 |      10 |     2.212 |
TimingAuditor.T...   INFO     MuonLowEnergy             |    38.175 |   219.069 |    3.062    1855.6   582.10 |      10 |     2.191 |
TimingAuditor.T...   INFO     MuonFlatSpillover         |     1.978 |     2.087 |    1.158       6.4     1.60 |      10 |     0.021 |
TimingAuditor.T...   INFO   Digi                        |   149.270 |   838.335 |   71.344    7204.5  2237.44 |      10 |     8.383 |
TimingAuditor.T...   INFO    DigiVeloSeq                |    32.319 |   166.384 |   18.572    1415.9   439.15 |      10 |     1.664 |
TimingAuditor.T...   INFO     VeloSim                   |    25.787 |    96.798 |   14.481     772.5   237.52 |      10 |     0.968 |
TimingAuditor.T...   INFO     VeloPUSim                 |     2.246 |    65.272 |    1.070     640.1   201.98 |      10 |     0.653 |
TimingAuditor.T...   INFO     VeloTell1DataProcessor    |     1.276 |     1.275 |    0.969       3.5     0.80 |      10 |     0.013 |
TimingAuditor.T...   INFO     VeloSimTell1ClusterMaker  |     2.902 |     2.902 |    1.806      11.7     3.11 |      10 |     0.029 |
TimingAuditor.T...   INFO     PuVetoFillRawBuffer       |     0.052 |     0.056 |    0.024       0.3     0.09 |      10 |     0.001 |
TimingAuditor.T...   INFO    DigiTTSeq                  |    23.248 |    98.368 |   11.587     778.0   239.06 |      10 |     0.984 |
TimingAuditor.T...   INFO     MCTTDepositCreator        |    16.562 |    91.671 |    6.874     772.0   239.19 |      10 |     0.917 |
TimingAuditor.T...   INFO     MCTTDigitCreator          |     0.935 |     0.914 |    0.483       1.9     0.44 |      10 |     0.009 |
TimingAuditor.T...   INFO     TTDigitCreator            |     3.859 |     3.863 |    2.892       6.8     1.14 |      10 |     0.039 |
TimingAuditor.T...   INFO     TTClusterCreator          |     1.361 |     1.359 |    0.911       2.4     0.45 |      10 |     0.014 |
TimingAuditor.T...   INFO     TTClusterKiller           |     0.182 |     0.171 |    0.080       0.5     0.13 |      10 |     0.002 |
TimingAuditor.T...   INFO     createTTRawBuffer         |     0.309 |     0.298 |    0.164       1.0     0.25 |      10 |     0.003 |
TimingAuditor.T...   INFO    DigiITSeq                  |    16.785 |    86.154 |    5.670     720.7   223.05 |      10 |     0.862 |
TimingAuditor.T...   INFO     MCITDepositCreator        |    11.491 |    80.854 |    2.464     714.7   222.79 |      10 |     0.809 |
TimingAuditor.T...   INFO     MCITDigitCreator          |     0.547 |     0.517 |    0.144       0.8     0.24 |      10 |     0.005 |
TimingAuditor.T...   INFO     ITDigitCreator            |     3.204 |     3.214 |    2.217       4.9     0.77 |      10 |     0.032 |
TimingAuditor.T...   INFO     ITClusterCreator          |     1.144 |     1.136 |    0.575       1.6     0.34 |      10 |     0.011 |
TimingAuditor.T...   INFO     ITClusterKiller           |     0.162 |     0.146 |    0.065       0.3     0.06 |      10 |     0.001 |
TimingAuditor.T...   INFO     createITRawBuffer         |     0.201 |     0.199 |    0.093       0.3     0.06 |      10 |     0.002 |
TimingAuditor.T...   INFO    DigiOTSeq                  |    14.603 |    98.199 |    5.482     879.0   274.39 |      10 |     0.982 |
TimingAuditor.T...   INFO     MCOTDepositCreator        |    12.594 |    96.154 |    4.597     875.6   273.90 |      10 |     0.962 |
TimingAuditor.T...   INFO     MCOTTimeCreator           |     1.623 |     1.610 |    0.646       3.6     0.93 |      10 |     0.016 |
TimingAuditor.T...   INFO     OTFillRawBuffer           |     0.368 |     0.383 |    0.199       1.2     0.32 |      10 |     0.004 |
TimingAuditor.T...   INFO    DigiRichSeq                |    15.522 |    98.599 |    6.881     864.9   269.34 |      10 |     0.986 |
TimingAuditor.T...   INFO     RichPDSignal              |     3.920 |    86.980 |    0.732     853.0   269.17 |      10 |     0.870 |
TimingAuditor.T...   INFO     RichChargeShare           |     0.400 |     0.390 |    0.203       0.7     0.16 |      10 |     0.004 |
TimingAuditor.T...   INFO     RichSummedDeposits        |     1.066 |     1.059 |    0.566       2.2     0.55 |      10 |     0.011 |
TimingAuditor.T...   INFO     RichPDResponse            |     8.348 |     8.353 |    4.474      16.1     3.55 |      10 |     0.084 |
TimingAuditor.T...   INFO     RichFillRawBuffer         |     1.753 |     1.740 |    0.843       6.5     1.70 |      10 |     0.017 |
TimingAuditor.T...   INFO    DigiCaloSeq                |    23.794 |   267.547 |   13.203    2511.6   788.49 |      10 |     2.675 |
TimingAuditor.T...   INFO     SpdSignal                 |     2.499 |    62.722 |    0.713     614.6   193.92 |      10 |     0.627 |
TimingAuditor.T...   INFO     PrsSignal                 |     2.425 |    62.774 |    0.563     615.9   194.36 |      10 |     0.628 |
TimingAuditor.T...   INFO     EcalSignal                |     3.418 |    66.117 |    0.901     643.7   202.96 |      10 |     0.661 |
TimingAuditor.T...   INFO     HcalSignal                |     1.642 |    62.038 |    0.383     615.1   194.33 |      10 |     0.620 |
TimingAuditor.T...   INFO     SpdDigit                  |     1.838 |     1.856 |    0.992       3.3     0.73 |      10 |     0.019 |
TimingAuditor.T...   INFO     PrsDigit                  |     3.828 |     3.852 |    2.602       6.7     1.13 |      10 |     0.039 |
TimingAuditor.T...   INFO     EcalDigit                 |     4.981 |     4.981 |    3.921       7.6     1.39 |      10 |     0.050 |
TimingAuditor.T...   INFO     HcalDigit                 |     1.388 |     1.364 |    1.075       2.3     0.41 |      10 |     0.014 |
TimingAuditor.T...   INFO     CaloFillPrsSpdRawBuffer   |     0.865 |     0.867 |    0.715       1.2     0.19 |      10 |     0.009 |
TimingAuditor.T...   INFO     EcalFillRawBuffer         |     0.693 |     0.674 |    0.507       1.0     0.19 |      10 |     0.007 |
TimingAuditor.T...   INFO     HcalFillRawBuffer         |     0.161 |     0.159 |    0.120       0.2     0.04 |      10 |     0.002 |
TimingAuditor.T...   INFO    DigiMuonSeq                |    22.963 |    23.037 |    9.913      39.4     9.57 |      10 |     0.230 |
TimingAuditor.T...   INFO     MuonDigitization          |    10.293 |    10.335 |    5.341      21.5     4.66 |      10 |     0.103 |
TimingAuditor.T...   INFO     MuonDigitToRawBuffer      |    12.553 |    12.648 |    4.537      20.9     5.62 |      10 |     0.126 |
TimingAuditor.T...   INFO   Link                        |    36.980 |    59.559 |   18.850     274.5    76.58 |      10 |     0.596 |
TimingAuditor.T...   INFO    LinkVeloSeq                |     4.912 |    27.454 |    2.717     235.7    73.18 |      10 |     0.275 |
TimingAuditor.T...   INFO     createVeloClusters        |     0.892 |     0.866 |    0.510       1.6     0.40 |      10 |     0.009 |
TimingAuditor.T...   INFO     VeloCluster2MCHitLinker   |     3.395 |    25.957 |    1.802     233.3    72.87 |      10 |     0.260 |
TimingAuditor.T...   INFO     VeloCluster2MCParticleLink|     0.613 |     0.584 |    0.317       1.5     0.34 |      10 |     0.006 |
TimingAuditor.T...   INFO    LinkTTSeq                  |     5.492 |     5.494 |    2.968       8.6     1.99 |      10 |     0.055 |
TimingAuditor.T...   INFO     TTDigitLinker             |     3.255 |     3.248 |    1.839       4.9     1.07 |      10 |     0.032 |
TimingAuditor.T...   INFO     TTClusterLinker           |     1.441 |     1.426 |    0.722       2.4     0.59 |      10 |     0.014 |
TimingAuditor.T...   INFO     TTTruthLinker             |     0.786 |     0.776 |    0.369       1.6     0.36 |      10 |     0.008 |
TimingAuditor.T...   INFO    LinkITSeq                  |     4.164 |     4.169 |    1.462       6.3     1.66 |      10 |     0.042 |
TimingAuditor.T...   INFO     ITDigitLinker             |     2.478 |     2.461 |    0.958       3.7     0.92 |      10 |     0.025 |
TimingAuditor.T...   INFO     ITClusterLinker           |     1.084 |     1.079 |    0.307       1.7     0.48 |      10 |     0.011 |
TimingAuditor.T...   INFO     ITTruthLinker             |     0.592 |     0.587 |    0.161       1.0     0.26 |      10 |     0.006 |
TimingAuditor.T...   INFO    LinkOTSeq                  |    10.550 |    10.558 |    4.103      17.6     5.26 |      10 |     0.106 |
TimingAuditor.T...   INFO     OTMCDepositLinker         |     3.504 |     3.484 |    1.051       6.4     2.12 |      10 |     0.035 |
TimingAuditor.T...   INFO     OTMCHitLinker             |     4.053 |     4.049 |    1.678       6.5     1.87 |      10 |     0.040 |
TimingAuditor.T...   INFO     OTMCParticleLinker        |     2.984 |     2.974 |    1.337       4.8     1.29 |      10 |     0.030 |
TimingAuditor.T...   INFO    LinkTrSeq                  |     1.748 |     1.748 |    0.791       3.0     0.70 |      10 |     0.017 |
TimingAuditor.T...   INFO     BuildMCTrackInfo          |     1.743 |     1.730 |    0.775       3.0     0.70 |      10 |     0.017 |
TimingAuditor.T...   INFO    LinkRichSeq                |     0.663 |     0.624 |    0.299       1.5     0.37 |      10 |     0.006 |
TimingAuditor.T...   INFO     Rich::MC::MCRichDigitSumma|     0.660 |     0.607 |    0.284       1.5     0.37 |      10 |     0.006 |
TimingAuditor.T...   INFO    LinkCaloSeq                |     8.752 |     8.808 |    6.186      13.6     2.24 |      10 |     0.088 |
TimingAuditor.T...   INFO     EcalFromRaw               |     1.932 |     1.977 |    1.554       4.2     0.83 |      10 |     0.020 |
TimingAuditor.T...   INFO     HcalFromRaw               |     0.432 |     0.425 |    0.380       0.5     0.05 |      10 |     0.004 |
TimingAuditor.T...   INFO     CaloReCreateMCLinks       |     0.042 |     0.052 |    0.022       0.3     0.09 |      10 |     0.001 |
TimingAuditor.T...   INFO     EcalDigitMCTruth          |     5.316 |     5.321 |    3.441       7.5     1.30 |      10 |     0.053 |
TimingAuditor.T...   INFO     HcalDigitMCTruth          |     0.976 |     0.964 |    0.593       1.3     0.24 |      10 |     0.010 |
TimingAuditor.T...   INFO    LinkMuonSeq                |     0.670 |     0.654 |    0.285       1.4     0.32 |      10 |     0.007 |
TimingAuditor.T...   INFO     MuonDigit2MCParticleAlg   |     0.524 |     0.506 |    0.217       1.1     0.25 |      10 |     0.005 |
TimingAuditor.T...   INFO     MuonTileDigitInfo         |     0.136 |     0.120 |    0.051       0.3     0.06 |      10 |     0.001 |
TimingAuditor.T...   INFO   Moni                        |    36.439 |    61.905 |   17.629     299.3    84.76 |      10 |     0.619 |
TimingAuditor.T...   INFO    MoniVeloSeq                |     9.510 |     9.957 |    5.307      20.9     4.87 |      10 |     0.100 |
TimingAuditor.T...   INFO     VeloSimMoni               |     5.451 |     5.536 |    3.300       8.8     1.71 |      10 |     0.055 |
TimingAuditor.T...   INFO     VeloRawClustersMoni       |     4.039 |     4.379 |    1.976      12.1     3.24 |      10 |     0.044 |
TimingAuditor.T...   INFO    MoniTTSeq                  |     8.376 |    33.327 |    4.912     261.7    80.29 |      10 |     0.333 |
TimingAuditor.T...   INFO     MCTTDepositMonitor        |     0.965 |     0.951 |    0.452       1.6     0.38 |      10 |     0.010 |
TimingAuditor.T...   INFO     MCTTDigitMonitor          |     0.862 |     0.849 |    0.400       1.4     0.35 |      10 |     0.008 |
TimingAuditor.T...   INFO     TTDigitMonitor            |     1.812 |     1.815 |    1.414       2.5     0.32 |      10 |     0.018 |
TimingAuditor.T...   INFO     TTClusterMonitor          |     0.701 |     0.695 |    0.410       1.4     0.31 |      10 |     0.007 |
TimingAuditor.T...   INFO     MCP2TTMCHitAlg            |     0.982 |    25.821 |    0.342     253.3    79.92 |      10 |     0.258 |
TimingAuditor.T...   INFO     TTEffChecker              |     3.020 |     3.111 |    1.745       7.8     1.86 |      10 |     0.031 |
TimingAuditor.T...   INFO    MoniITSeq                  |     6.282 |     6.302 |    2.761       8.5     2.00 |      10 |     0.063 |
TimingAuditor.T...   INFO     MCITDepositMonitor        |     0.729 |     0.716 |    0.179       1.1     0.33 |      10 |     0.007 |
TimingAuditor.T...   INFO     MCITDigitMonitor          |     0.647 |     0.642 |    0.167       1.0     0.29 |      10 |     0.006 |
TimingAuditor.T...   INFO     ITDigitMonitor            |     1.503 |     1.498 |    1.022       1.9     0.32 |      10 |     0.015 |
TimingAuditor.T...   INFO     ITClusterMonitor          |     0.505 |     0.499 |    0.178       0.8     0.20 |      10 |     0.005 |
TimingAuditor.T...   INFO     MCP2ITMCHitAlg            |     0.172 |     0.160 |    0.068       0.2     0.07 |      10 |     0.002 |
TimingAuditor.T...   INFO     ITEffChecker              |     2.692 |     2.709 |    1.098       3.6     0.94 |      10 |     0.027 |
TimingAuditor.T...   INFO    MoniOTSeq                  |     9.379 |     9.398 |    3.097      19.2     5.33 |      10 |     0.094 |
TimingAuditor.T...   INFO     MCOTDepositMonitor        |     9.369 |     9.368 |    3.079      19.1     5.32 |      10 |     0.094 |
TimingAuditor.T...   INFO    MoniRichSeq                |     1.671 |     1.668 |    0.893       4.2     0.95 |      10 |     0.017 |
TimingAuditor.T...   INFO     RiDigitQC                 |     1.655 |     1.651 |    0.880       4.1     0.95 |      10 |     0.017 |
TimingAuditor.T...   INFO    MoniCaloSeq                |     0.498 |     0.485 |    0.270       1.4     0.33 |      10 |     0.005 |
TimingAuditor.T...   INFO     SpdCheck                  |     0.090 |     0.100 |    0.049       0.3     0.09 |      10 |     0.001 |
TimingAuditor.T...   INFO     PrsCheck                  |     0.098 |     0.091 |    0.041       0.3     0.06 |      10 |     0.001 |
TimingAuditor.T...   INFO     EcalCheck                 |     0.254 |     0.183 |    0.119       0.4     0.08 |      10 |     0.002 |
TimingAuditor.T...   INFO     HcalCheck                 |     0.023 |     0.073 |    0.031       0.3     0.09 |      10 |     0.001 |
TimingAuditor.T...   INFO    MoniMuonSeq                |     0.700 |     0.711 |    0.348       1.8     0.42 |      10 |     0.007 |
TimingAuditor.T...   INFO     MuonDigitChecker          |     0.691 |     0.695 |    0.332       1.8     0.42 |      10 |     0.007 |
TimingAuditor.T...   INFO    MoniMCSeq                  |     0.002 |     0.005 |    0.005       0.0     0.00 |      10 |     0.000 |
TimingAuditor.T...   INFO   Filter                      |     0.003 |     0.004 |    0.004       0.0     0.00 |      10 |     0.000 |
TimingAuditor.T...   INFO  PrepareDIGI                  |     0.011 |     0.005 |    0.005       0.0     0.00 |      10 |     0.000 |
TimingAuditor.T...   INFO  FSROutputStreamDigiWriter    |     0.000 |     0.006 |    0.004       0.0     0.00 |      10 |     0.000 |
TimingAuditor.T...   INFO  DigiWriter                   |  1844.394 |  2217.080 |  308.683    5313.4  1293.56 |      10 |    22.171 |
TimingAuditor.T...   INFO  MDFKiller                    |    10.264 |    10.270 |    6.341      13.2     2.41 |      10 |     0.103 |
TimingAuditor.T...   INFO  RawWriter                    |     1.909 |     1.921 |    1.246       4.0     0.78 |      10 |     0.019 |
TimingAuditor.T...   INFO *     UnpackMCParticles       |     3.990 |    45.425 |    1.069     431.1   135.53 |      10 |     0.454 |
TimingAuditor.T...   INFO *     UnpackMCMuonHits        |     1.841 |    80.074 |    0.224     795.9   251.51 |      10 |     0.801 |
TimingAuditor.T...   INFO *     UnpackMCVertices        |     2.903 |    23.036 |    0.784     214.3    67.22 |      10 |     0.230 |
TimingAuditor.T...   INFO *     UnpackMCVeloHits        |     3.204 |    74.161 |    0.403     734.4   232.00 |      10 |     0.742 |
TimingAuditor.T...   INFO *     UnpackMCPuVetoHits      |     1.349 |    64.422 |    0.428     639.2   201.97 |      10 |     0.644 |
TimingAuditor.T...   INFO *     UnpackMCTTHits          |     1.897 |    76.363 |    0.284     759.0   239.86 |      10 |     0.764 |
TimingAuditor.T...   INFO *     UnpackMCITHits          |     1.819 |    71.185 |    0.372     705.2   222.78 |      10 |     0.712 |
TimingAuditor.T...   INFO *     UnpackMCOTHits          |     3.075 |    86.618 |    0.418     858.8   271.31 |      10 |     0.866 |
TimingAuditor.T...   INFO *     UnpackMCRichHits        |     3.384 |    86.448 |    0.537     852.6   269.21 |      10 |     0.864 |
TimingAuditor.T...   INFO *     UnpackMCSpdHits         |     1.701 |    61.993 |    0.352     613.7   193.86 |      10 |     0.620 |
TimingAuditor.T...   INFO *     UnpackMCPrsHits         |     1.750 |    62.020 |    0.298     615.0   194.28 |      10 |     0.620 |
TimingAuditor.T...   INFO *     UnpackMCEcalHits        |     2.176 |    64.877 |    0.304     642.0   202.79 |      10 |     0.649 |
TimingAuditor.T...   INFO *     UnpackMCHcalHits        |     1.376 |    61.757 |    0.211     614.7   194.28 |      10 |     0.618 |
TimingAuditor.T...   INFO --------------------------------------------------------------------------------------------------
DataOnDemandSvc      INFO Handled "DataFault" incidents: 130/40/1080(Alg/Node/Total).
ApplicationMgr       INFO Application Manager Finalized successfully
ApplicationMgr       INFO Application Manager Terminated successfully
