# --> Including file '/nightlies/jenkins/workspace/nightly-slot-test-project-platform@5/build/BOOLE/BOOLE_HEAD/Digi/Boole/tests/options/testBoole-defaults.py'
# <-- End of file '/nightlies/jenkins/workspace/nightly-slot-test-project-platform@5/build/BOOLE/BOOLE_HEAD/Digi/Boole/tests/options/testBoole-defaults.py'
# --> Including file '/nightlies/jenkins/workspace/nightly-slot-test-project-platform@5/build/BOOLE/BOOLE_HEAD/Digi/Boole/options/Boole-MC10.py'
# --> Including file '/afs/cern.ch/lhcb/software/releases/DBASE/AppConfig/v3r295/options/Boole/DataType-2010.py'
# <-- End of file '/afs/cern.ch/lhcb/software/releases/DBASE/AppConfig/v3r295/options/Boole/DataType-2010.py'
# <-- End of file '/nightlies/jenkins/workspace/nightly-slot-test-project-platform@5/build/BOOLE/BOOLE_HEAD/Digi/Boole/options/Boole-MC10.py'
# --> Including file '/nightlies/jenkins/workspace/nightly-slot-test-project-platform@5/build/BOOLE/BOOLE_HEAD/Digi/Boole/options/MC10-Files.py'
# WARNING: run() will not reset the DDDB tag, because it is already set, set withDB=True(force) or False(skip) to suppress this warning
# WARNING: run() will not reset the CondDB tag, because it is already set, set withDB=True(force) or False(skip) to suppress this warning
# <-- End of file '/nightlies/jenkins/workspace/nightly-slot-test-project-platform@5/build/BOOLE/BOOLE_HEAD/Digi/Boole/options/MC10-Files.py'
# applying configuration of Boole
# WARNING: Property 'DataType' is set in both 'Boole' and 'LHCbApp', using 'Boole.DataType'
# WARNING: property 'fullDetail' was requested for MCOTDepositMonitor, but the correct spelling is 'FullDetail'
# /***** User Boole/Boole ****************************************************************************
# |-DatasetName         = '30000000-100ev-20110902-MC10'  (default: 'Boole')
# |-DetectorLink        = ['PuVeto', 'Velo', 'TT', 'IT', 'OT', 'Tr', 'Rich1', 'Rich2', 'Spd', 'Prs', 'Ecal', 'Hcal', 'Muon', 'L0']
# |                     (default: ['PuVeto', 'Velo', 'TT', 'IT', 'OT', 'Tr', 'Rich1', 'Rich2', 'Spd', 'Prs', 'Ecal', 'Hcal', 'Muon', 'L0'])
# |-DetectorInit        = {'MUON': ['Muon'], 'DATA': ['Data']}  (default: {'MUON': ['Muon'], 'DATA': ['Data']})
# |-Histograms          = 'Expert'  (default: 'Default')
# |-SkipEvents          = 0
# |-VeloTell1Processing = True
# |-InputDataType       = 'SIM'
# |-ProductionMode      = False
# |-SplitRawEventFormat = None
# |-FilterSequence      = []  (default: [])
# |-TAESubdets          = ['Calo', 'Muon']  (default: ['Calo', 'Muon'])
# |-Outputs             = ['DIGI', 'MDF']  (default: ['DIGI'])
# |-DetectorDigi        = ['PuVeto', 'Velo', 'TT', 'IT', 'OT', 'Rich1', 'Rich2', 'Spd', 'Prs', 'Ecal', 'Hcal', 'Muon', 'L0']
# |                     (default: ['PuVeto', 'Velo', 'TT', 'IT', 'OT', 'Rich1', 'Rich2', 'Spd', 'Prs', 'Ecal', 'Hcal', 'Muon', 'L0'])
# |-MainSequence        = []  (default: [])
# |-DigiType            = 'Default'
# |-MoniSequence        = ['Velo', 'TT', 'IT', 'OT', 'Rich', 'Calo', 'Muon', 'MC']  (default: [])
# |-DetectorMoni        = ['PuVeto', 'Velo', 'TT', 'IT', 'OT', 'Rich1', 'Rich2', 'Spd', 'Prs', 'Ecal', 'Hcal', 'Muon', 'L0', 'MC']
# |                     (default: ['PuVeto', 'Velo', 'TT', 'IT', 'OT', 'Rich1', 'Rich2', 'Spd', 'Prs', 'Ecal', 'Hcal', 'Muon', 'L0', 'MC'])
# |-TAEPrev             = 0
# |-EnablePack          = False  (default: True)
# |-DigiSequence        = ['Velo', 'TT', 'IT', 'OT', 'Rich', 'Calo', 'Muon']  (default: [])
# |-OutputLevel         = 3
# |-EvtMax              = 10  (default: -1)
# |-TAENext             = 0
# |-UseSpillover        = False
# |-MergeGenFSR         = False
# |-EnableL0            = False
# |-CondDBtag           = ''
# |-InitSequence        = ['Data', 'Muon']  (default: [])
# |-DataType            = '2010'  (default: '2015')
# |-NoWarnings          = False
# |-SiG4EnergyDeposit   = False  (default: True)
# |-WriteFSR            = True
# |-LinkSequence        = ['Velo', 'TT', 'IT', 'OT', 'Tr', 'Rich', 'Calo', 'Muon']  (default: [])
# |-SpilloverPaths      = ['Prev', 'PrevPrev', 'Next', 'NextNext']  (default: [])
# |-DDDBtag             = ''
# |-Monitors            = ['SC', 'FPE']  (default: [])
# \----- (End of User Boole/Boole) -------------------------------------------------------------------
# DigiWriter.ItemList    = ['/Event/Gen/Header#1', '/Event/MC/Header#1', '/Event/MC/DigiHeader#1', '/Event/DAQ/RawEvent#1', '/Event/Gen/Collisions#1', '/Event/MC/Vertices#1', '/Event/MC/Particles#1', '/Event/MC/Rich/DigitSummaries#1', '/Event/MC/Muon/DigitsInfo#1', '/Event/Link/Raw/Velo/Clusters#1', '/Event/Link/Raw/TT/Clusters#1', '/Event/Link/Raw/IT/Clusters#1', '/Event/Link/Raw/OT/Times#1', '/Event/Link/Raw/Muon/Digits#1', '/Event/Link/Raw/Ecal/Digits#1', '/Event/Link/Raw/Hcal/Digits#1', '/Event/MC/TrackInfo#1', '/Event/Link/Raw/Velo/Clusters2MCHits#1', '/Event/Link/Raw/TT/Clusters2MCHits#1', '/Event/Link/Raw/IT/Clusters2MCHits#1', '/Event/Link/Raw/OT/Times2MCHits#1']
# DigiWriter.OptItemList = []
ApplicationMgr    SUCCESS
====================================================================================================================================
                                                   Welcome to Boole version HEAD
                                          running on lbbuild72.cern.ch on Mon Oct  3 07:33:25 2016
====================================================================================================================================
ApplicationMgr       INFO Application Manager Configured successfully
StatusCodeSvc        INFO initialize
DetectorPersist...   INFO Added successfully Conversion service:XmlCnvSvc
DetectorDataSvc   SUCCESS Detector description database: conddb:/lhcb.xml
RndmGenSvc.Engine    INFO Generator engine type:CLHEP::RanluxEngine
RndmGenSvc.Engine    INFO Current Seed:1234567 Luxury:3
RndmGenSvc           INFO Using Random engine:HepRndm::Engine<CLHEP::RanluxEngine>
TimingAuditor.T...   INFO This machine has a speed about   3.12 times the speed of a 2.8 GHz Xeon.
BooleSequencer       INFO Member list: ProcessPhase/Init, ProcessPhase/Digi, ProcessPhase/Link, ProcessPhase/Moni, ProcessPhase/Filter
Init                 INFO Member list: GaudiSequencer/InitBooleSeq, GaudiSequencer/InitDataSeq, GaudiSequencer/InitMuonSeq
InitBooleSeq         INFO Member list: BooleInit, GaudiSequencer/SpilloverHandler
BooleInit         SUCCESS ==================================================================
BooleInit         SUCCESS Requested to process 10 events
BooleInit         SUCCESS ==================================================================
RootHistSvc          INFO Writing ROOT histograms to: 30000000-100ev-20110902-MC10-10ev-expert-histos.root
HistogramPersis...   INFO Added successfully Conversion service:RootHistSvc
HistogramDataSvc     INFO Added stream file:/afs/cern.ch/lhcb/software/DEV/nightlies/PARAM/ParamFiles/v8r999/data/muonlow-G4.root as LowEnergy
HistogramDataSvc     INFO Added stream file:/afs/cern.ch/lhcb/software/DEV/nightlies/PARAM/ParamFiles/v8r999/data/muonflat-G4.root as MuonFlatSpillover
HistogramDataSvc     INFO Added stream file:/afs/cern.ch/lhcb/software/DEV/nightlies/PARAM/ParamFiles/v8r999/data/OTDoublePulse.root as OTDoublePulse
SpilloverHandler     INFO Member list: TESCheck/SpilloverLoader, EventNodeKiller/SpilloverKiller
InitDataSeq          INFO Member list:
InitMuonSeq          INFO Member list: MuonBackground/MuonLowEnergy, MuonBackground/MuonFlatSpillover
COOLConfSvc          INFO CORAL Connection Retrial Period set to 60s
COOLConfSvc          INFO CORAL Connection Retrial Time-Out set to 900s
DDDB                 INFO Connected to database "sqlite_file:/afs/cern.ch/lhcb/software/DEV/nightlies/DBASE/Det/SQLDDDB/v7r999/db/DDDB.db/DDDB"
DDDB                 INFO Using TAG "head-20101206"
EventClockSvc.F...   INFO Event times generated from 0 with steps of 0
SIMCOND              INFO Connected to database "sqlite_file:/afs/cern.ch/lhcb/software/DEV/nightlies/DBASE/Det/SQLDDDB/v7r999/db/SIMCOND.db/SIMCOND"
SIMCOND              INFO Using TAG "sim-20101210-vc-md100"
RFileCnv             INFO opening Root file "/afs/cern.ch/lhcb/software/DEV/nightlies/PARAM/ParamFiles/v8r999/data/muonlow-G4.root" for reading
MuonLowEnergy        INFO The low energy background is run by default for main events plus (if any) spillover events (max 4)
RFileCnv             INFO opening Root file "/afs/cern.ch/lhcb/software/DEV/nightlies/PARAM/ParamFiles/v8r999/data/muonflat-G4.root" for reading
Digi                 INFO Member list: GaudiSequencer/DigiVeloSeq, GaudiSequencer/DigiTTSeq, GaudiSequencer/DigiITSeq, GaudiSequencer/DigiOTSeq, GaudiSequencer/DigiRichSeq, GaudiSequencer/DigiCaloSeq, GaudiSequencer/DigiMuonSeq
DigiVeloSeq          INFO Member list: VeloSim, VeloSim/VeloPUSim, VeloTell1DataProcessor, VeloSimTell1ClusterMaker, PuVetoFillRawBuffer
DeVeloRType       WARNING VELO R sensor M2 routing lines not in conditions DB cond: Routing-R-X-Strip0000 and Routing-R-Y-Strip0000
VeloSim              INFO Probability to add noise to empty strips 0.0153028
VeloSim              INFO Probability to add noise to isolated empty strips 3.2331e-08
VeloSim.RadDamage WARNING VeloRadDamageTool:: VELO radiation damage parameters not in conditions DB
VeloPUSim            INFO Probability to add noise to empty strips 0.0153028
VeloPUSim            INFO Probability to add noise to isolated empty strips 3.2331e-08
VeloPUSim.RadDa...WARNING VeloRadDamageTool:: VELO radiation damage parameters not in conditions DB
DigiTTSeq            INFO Member list: MCSTDepositCreator/MCTTDepositCreator, MCSTDigitCreator/MCTTDigitCreator, STDigitCreator/TTDigitCreator, STClusterCreator/TTClusterCreator, STClusterKiller/TTClusterKiller, STClustersToRawBankAlg/createTTRawBuffer
MagneticFieldSvc     INFO Opened magnetic field file : /afs/cern.ch/lhcb/software/DEV/nightlies/DBASE/FieldMap/v5r7/cdf/c1_onemap_down.cdf
MagneticFieldSvc     INFO Opened magnetic field file : /afs/cern.ch/lhcb/software/DEV/nightlies/DBASE/FieldMap/v5r7/cdf/c2_onemap_down.cdf
MagneticFieldSvc     INFO Opened magnetic field file : /afs/cern.ch/lhcb/software/DEV/nightlies/DBASE/FieldMap/v5r7/cdf/c3_onemap_down.cdf
MagneticFieldSvc     INFO Opened magnetic field file : /afs/cern.ch/lhcb/software/DEV/nightlies/DBASE/FieldMap/v5r7/cdf/c4_onemap_down.cdf
MagneticFieldSvc     INFO Map scaled by factor 1 with polarity internally used: -1 signed relative current: -1
TTClusterCreator     INFO Loading cuts tagged as Data10
ToolSvc.TTKiller     INFO Adding Tool: type: STRndmEffSelector / name: Selector
DigiITSeq            INFO Member list: MCSTDepositCreator/MCITDepositCreator, MCSTDigitCreator/MCITDigitCreator, STDigitCreator/ITDigitCreator, STClusterCreator/ITClusterCreator, STClusterKiller/ITClusterKiller, STClustersToRawBankAlg/createITRawBuffer
ITClusterCreator     INFO Loading cuts tagged as Data10
ToolSvc.ITKiller     INFO Adding Tool: type: STRndmEffSelector / name: Selector
DigiOTSeq            INFO Member list: MCOTDepositCreator, MCOTTimeCreator, OTFillRawBuffer
ToolSvc.OTRando...   INFO ******** Noise Settings ********
ToolSvc.OTRando...   INFO Number of channels: 55296
ToolSvc.OTRando...   INFO Noise rate: 1e-05
ToolSvc.OTRando...   INFO Width of read out gate in ns75
ToolSvc.OTRando...   INFO Dead time : 25
ToolSvc.OTRando...   INFO Number of deposits to generate: 55
ToolSvc.OTRando...   INFO ********************************
DigiRichSeq          INFO Member list: Rich::MC::Digi::Signal/RichPDSignal, Rich::MC::Digi::SimpleChargeSharing/RichChargeShare, Rich::MC::Digi::SummedDeposits/RichSummedDeposits, Rich::MC::Digi::DetailedFrontEndResponse/RichPDResponse, Rich::MC::Digi::MCRichDigitsToRawBufferAlg/RichFillRawBuffer
RichChargeShare      INFO Will add charge sharing at 2.5 % level
ToolSvc.RichSma...   INFO Created active PD channel list : # channels RICH(1/2) = 167776 / 246528
RichPDResponse       INFO Time Calibration (Rich1/RICH2) = [10, 6]
ToolSvc.RichRaw...   INFO Using [DAQ/RawEvent] as search path for the RawEvent object
RichFillRawBuffer    INFO Using RICH Level1 buffer format : 129
DigiCaloSeq          INFO Member list: CaloSignalAlg/SpdSignal, CaloSignalAlg/PrsSignal, CaloSignalAlg/EcalSignal, CaloSignalAlg/HcalSignal, CaloDigitAlg/SpdDigit, CaloDigitAlg/PrsDigit, CaloDigitAlg/EcalDigit, CaloDigitAlg/HcalDigit, CaloFillPrsSpdRawBuffer, CaloFillRawBuffer/EcalFillRawBuffer, CaloFillRawBuffer/HcalFillRawBuffer
SpdSignal            INFO Initialised. Store also previous BX.
PrsSignal            INFO Initialised. Store also previous BX.
EcalSignal           INFO Initialised.
HcalSignal           INFO Initialised.
SpdDigit             INFO ----- Detector parameters (from condDB) ------------------
SpdDigit             INFO Nominal gain parameters for    Outer region :    0.0 +   2.5 x sin(theta)
SpdDigit             INFO Nominal gain parameters for   Middle region :    0.0 +   2.5 x sin(theta)
SpdDigit             INFO Nominal gain parameters for    Inner region :    0.0 +   2.5 x sin(theta)
SpdDigit             INFO Noise          :   0.0 +   0.0 (coherent) counts.
SpdDigit             INFO Pedestal shift :  0.00 counts
SpdDigit             INFO Actual dynamics saturation :   0.90 x ADCMax
SpdDigit             INFO Subtract 0.2000 of previous BX
SpdDigit             INFO  MIP deposit    :   2.54 MeV
SpdDigit             INFO Number of photo-electrons per MIP for    Outer region :   22.00
SpdDigit             INFO Number of photo-electrons per MIP for   Middle region :   32.00
SpdDigit             INFO Number of photo-electrons per MIP for    Inner region :   27.00
SpdDigit             INFO Zero-suppression threshold :   0.50 ADC
SpdDigit             INFO L0 trigger suppression     :   0.50 ADC
SpdDigit             INFO L0 trigger ADC correction for    Outer region :    1.00
SpdDigit             INFO L0 trigger ADC correction for   Middle region :    1.00
SpdDigit             INFO L0 trigger ADC correction for    Inner region :    1.00
SpdDigit             INFO ----- Digitization parameters (from CaloDigitAlg configuration) ------------------
SpdDigit             INFO Additional  0.0% of the cells as dead (gain=0).
SpdDigit             INFO Additional gain error  0.0%
PrsDigit             INFO ----- Detector parameters (from condDB) ------------------
PrsDigit             INFO Nominal gain parameters for    Outer region :    0.0 + 185.1 x sin(theta)
PrsDigit             INFO Nominal gain parameters for   Middle region :    0.0 + 169.9 x sin(theta)
PrsDigit             INFO Nominal gain parameters for    Inner region :    0.0 + 160.9 x sin(theta)
PrsDigit             INFO Noise          :   1.0 +   0.0 (coherent) counts.
PrsDigit             INFO Pedestal shift :  0.00 counts
PrsDigit             INFO Actual dynamics saturation :   0.90 x ADCMax
PrsDigit             INFO Subtract 0.2000 of previous BX
PrsDigit             INFO  MIP deposit    :   2.54 MeV
PrsDigit             INFO Number of photo-electrons per MIP for    Outer region :   22.00
PrsDigit             INFO Number of photo-electrons per MIP for   Middle region :   32.00
PrsDigit             INFO Number of photo-electrons per MIP for    Inner region :   27.00
PrsDigit             INFO Zero-suppression threshold :   6.00 ADC
PrsDigit             INFO L0 trigger suppression     : 100.00 ADC
PrsDigit             INFO L0 trigger ADC correction for    Outer region :    1.00
PrsDigit             INFO L0 trigger ADC correction for   Middle region :    1.00
PrsDigit             INFO L0 trigger ADC correction for    Inner region :    1.00
PrsDigit             INFO ----- Digitization parameters (from CaloDigitAlg configuration) ------------------
PrsDigit             INFO Additional  0.0% of the cells as dead (gain=0).
PrsDigit             INFO Additional gain error  1.0%
EcalDigit            INFO ----- Detector parameters (from condDB) ------------------
EcalDigit            INFO Nominal gain parameters for    Outer region :  10000.0 + 7000.0 x sin(theta)
EcalDigit            INFO Nominal gain parameters for   Middle region :  10000.0 + 7000.0 x sin(theta)
EcalDigit            INFO Nominal gain parameters for    Inner region :  10000.0 + 7000.0 x sin(theta)
EcalDigit            INFO Noise          :   1.2 +   0.3 (coherent) counts.
EcalDigit            INFO Pedestal shift :  0.40 counts
EcalDigit            INFO Actual dynamics saturation :   0.95 x ADCMax
EcalDigit            INFO L0 trigger suppression     :   0.50 ADC
EcalDigit            INFO L0 trigger ADC correction for    Outer region :    1.00
EcalDigit            INFO L0 trigger ADC correction for   Middle region :    1.04
EcalDigit            INFO L0 trigger ADC correction for    Inner region :    1.08
EcalDigit            INFO ----- Digitization parameters (from CaloDigitAlg configuration) ------------------
EcalDigit            INFO Additional  0.0% of the cells as dead (gain=0).
EcalDigit            INFO Additional gain error  1.0%
HcalDigit            INFO ----- Detector parameters (from condDB) ------------------
HcalDigit            INFO Nominal gain parameters for    Outer region :  15000.0 +   0.0 x sin(theta)
HcalDigit            INFO Nominal gain parameters for    Inner region :  15000.0 +   0.0 x sin(theta)
HcalDigit            INFO Noise          :   1.2 +   0.3 (coherent) counts.
HcalDigit            INFO Pedestal shift :  0.40 counts
HcalDigit            INFO Actual dynamics saturation :   0.95 x ADCMax
HcalDigit            INFO L0 trigger suppression     :   0.50 ADC
HcalDigit            INFO L0 trigger ADC correction for    Outer region :    1.00
HcalDigit            INFO L0 trigger ADC correction for    Inner region :    1.05
HcalDigit            INFO ----- Digitization parameters (from CaloDigitAlg configuration) ------------------
HcalDigit            INFO Additional  0.0% of the cells as dead (gain=0).
HcalDigit            INFO Additional gain error  1.0%
CaloFillPrsSpdR...   INFO Data coding type 3
EcalFillRawBuffer    INFO Processing 192 FE-Cards and 26 TELL1
EcalFillRawBuffer    INFO Data coding type 2
HcalFillRawBuffer    INFO Processing 54 FE-Cards and 8 TELL1
HcalFillRawBuffer    INFO Data coding type 2
DigiMuonSeq          INFO Member list: MuonDigitization, MuonDigitToRawBuffer
Link                 INFO Member list: GaudiSequencer/LinkVeloSeq, GaudiSequencer/LinkTTSeq, GaudiSequencer/LinkITSeq, GaudiSequencer/LinkOTSeq, GaudiSequencer/LinkTrSeq, GaudiSequencer/LinkRichSeq, GaudiSequencer/LinkCaloSeq, GaudiSequencer/LinkMuonSeq
LinkVeloSeq          INFO Member list: DecodeVeloRawBuffer/createVeloClusters, VeloCluster2MCHitLinker, VeloCluster2MCParticleLinker
createVeloClusters   INFO Cancel processing of events with more than 10000 Velo clusters
LinkTTSeq            INFO Member list: STDigit2MCHitLinker/TTDigitLinker, STCluster2MCHitLinker/TTClusterLinker, STCluster2MCParticleLinker/TTTruthLinker
LinkITSeq            INFO Member list: STDigit2MCHitLinker/ITDigitLinker, STCluster2MCHitLinker/ITClusterLinker, STCluster2MCParticleLinker/ITTruthLinker
LinkOTSeq            INFO Member list: OTMCDepositLinker, OTMCHitLinker, OTMCParticleLinker
LinkTrSeq            INFO Member list: BuildMCTrackInfo
LinkRichSeq          INFO Member list: Rich::MC::MCRichDigitSummaryAlg
Rich::MC::MCRic...   INFO Will only store MCParticle references for main event
LinkCaloSeq          INFO Member list: CaloDigitsFromRaw/EcalFromRaw, CaloDigitsFromRaw/HcalFromRaw, CaloReCreateMCLinks, CaloDigitMCTruth/EcalDigitMCTruth, CaloDigitMCTruth/HcalDigitMCTruth
LinkMuonSeq          INFO Member list: MuonDigit2MCParticleAlg, MuonTileDigitInfo
Moni                 INFO Member list: GaudiSequencer/MoniVeloSeq, GaudiSequencer/MoniTTSeq, GaudiSequencer/MoniITSeq, GaudiSequencer/MoniOTSeq, GaudiSequencer/MoniRichSeq, GaudiSequencer/MoniCaloSeq, GaudiSequencer/MoniMuonSeq, GaudiSequencer/MoniMCSeq
MoniVeloSeq          INFO Member list: VeloSimMoni, VeloRawClustersMoni
MoniTTSeq            INFO Member list: MCSTDepositMonitor/MCTTDepositMonitor, MCSTDigitMonitor/MCTTDigitMonitor, STDigitMonitor/TTDigitMonitor, ST::STClusterMonitor/TTClusterMonitor, MCParticle2MCHitAlg/MCP2TTMCHitAlg, STEffChecker/TTEffChecker
TTEffChecker.MC...   INFO MCParticle Momentum cut     : 1 GeV/c < P < 1.79769e+308 GeV/c
TTEffChecker.MC...   INFO            Beta * gamma cut : 1 < beta*gamma
TTEffChecker.MC...   INFO            Eta cut          : -1.79769e+308 < P < 1.79769e+308
MoniITSeq            INFO Member list: MCSTDepositMonitor/MCITDepositMonitor, MCSTDigitMonitor/MCITDigitMonitor, STDigitMonitor/ITDigitMonitor, ST::STClusterMonitor/ITClusterMonitor, MCParticle2MCHitAlg/MCP2ITMCHitAlg, STEffChecker/ITEffChecker
ITEffChecker.MC...   INFO MCParticle Momentum cut     : 1 GeV/c < P < 1.79769e+308 GeV/c
ITEffChecker.MC...   INFO            Beta * gamma cut : 1 < beta*gamma
ITEffChecker.MC...   INFO            Eta cut          : -1.79769e+308 < P < 1.79769e+308
MoniOTSeq            INFO Member list: MCOTDepositMonitor, OTTimeChecker, OTTimeMonitor, OTTimeClassification
ToolSvc.OTRawBa...   INFO  countsPerBX = 64 numberOfBX  = 3 timePerBX = 25 ForceBankVersion = 255
MoniRichSeq          INFO Member list: Rich::MC::Digi::DigitQC/RiDigitQC
MoniCaloSeq          INFO Member list: CaloDigitChecker/SpdCheck, CaloDigitChecker/PrsCheck, CaloDigitChecker/EcalCheck, CaloDigitChecker/HcalCheck
SpdCheck             INFO Monitoring Hits MC/Spd/Hits   MC Digit   MC/Spd/Digits   Digit   Raw/Spd/Digits, Histograms booked
PrsCheck             INFO Monitoring Hits MC/Prs/Hits   MC Digit   MC/Prs/Digits   Digit   Raw/Prs/Digits, Histograms booked
EcalCheck            INFO Monitoring Hits MC/Ecal/Hits   MC Digit   MC/Ecal/Digits   Digit   Raw/Ecal/Digits, Histograms booked
HcalCheck            INFO Monitoring Hits MC/Hcal/Hits   MC Digit   MC/Hcal/Digits   Digit   Raw/Hcal/Digits, Histograms booked
MoniMuonSeq          INFO Member list: MuonDigitChecker
MoniMCSeq            INFO Member list:
Filter               INFO OR Member list:
PrepareDIGI          INFO Member list:
FileRecordPersi...   INFO Added successfully Conversion service:FileRecordCnvSvc
FSROutputStream...   INFO Data source: FileRecordDataSvc output: DATAFILE='PFN:30000000-100ev-20110902-MC10-10ev.digi' SVC='FileRecordCnvSvc' OPT='REC'
EventPersistenc...   INFO Added successfully Conversion service:RootCnvSvc
DigiWriter           INFO Data source: EventDataSvc output: DATAFILE='PFN:30000000-100ev-20110902-MC10-10ev.digi' SVC='RootCnvSvc' OPT='REC'
EventPersistenc...   INFO Added successfully Conversion service:LHCb::RawDataCnvSvc
RawWriter            INFO Data source: EventDataSvc output: DATAFILE='PFN:30000000-100ev-20110902-MC10-10ev.mdf' SVC='LHCb::RawDataCnvSvc' OPT='REC'
EventSelector        INFO Stream:EventSelector.DataStreamTool_1 Def:DATAFILE='root://eoslhcb.cern.ch//eos/lhcb/grid/prod/lhcb/swtest/lhcb/swtest/boole.fixedfile-gauss-v39r4-mc10-sim/Gauss-v39r4-30000000-100ev-20110902-MC10.sim' SVC='Gaudi::RootEvtSelector' OPT='READ'
ApplicationMgr       INFO Application Manager Initialized successfully
ApplicationMgr       INFO Application Manager Started successfully
BooleInit            INFO Evt 1,  Run 1082,  Nr. in job = 1
MuonFlatSpillover    INFO  luminosity factor 0.52976 compared to default 2*10^32 cm-2 s-1
VeloSimTell1Clu...   INFO  ==> CLUSTER_MAKER Configured  type: TELL1 Cluster Maker
VeloSimTell1Clu...   INFO  --> Creating dynamic config for Cluster Maker!
VeloSimTell1Clu...   INFO  --> Thresholds calculated usign SIMCOND data base
VeloSimTell1Clu...   INFO  --> Algorithm CLUSTER_MAKER of type: TELL1 Cluster Maker is enabled and ready to process data --
IODataManager        INFO Referring to dataset 30000000-100ev-20110902-MC10-10ev.digi by its file ID:88E361FF-2A89-E611-A898-02163E017C4E
IODataManager        INFO Referring to dataset 30000000-100ev-20110902-MC10-10ev.mdf by its file ID:9A9E0101-2B89-E611-A898-02163E017C4E
LHCb::RawDataCn...   INFO Opened(NEW)  MDF stream:PFN:30000000-100ev-20110902-MC10-10ev.mdf ID:0x1c9db510
BooleInit            INFO Evt 2,  Run 1082,  Nr. in job = 2
BooleInit            INFO Evt 3,  Run 1082,  Nr. in job = 3
BooleInit            INFO Evt 4,  Run 1082,  Nr. in job = 4
BooleInit            INFO Evt 5,  Run 1082,  Nr. in job = 5
BooleInit            INFO Evt 6,  Run 1082,  Nr. in job = 6
BooleInit            INFO Evt 7,  Run 1082,  Nr. in job = 7
BooleInit            INFO Evt 8,  Run 1082,  Nr. in job = 8
BooleInit            INFO Evt 9,  Run 1082,  Nr. in job = 9
BooleInit            INFO Evt 10,  Run 1082,  Nr. in job = 10
ApplicationMgr       INFO Application Manager Stopped successfully
UnpackMCMuonHits  SUCCESS Number of counters : 1
 |    Counter                                      |     #     |    sum     | mean/eff^* | rms/err^*  |     min     |     max     |
 | "# UnPackedData"                                |        10 |       4029 |     402.90 |     276.69 |      2.0000 |      791.00 |
UnpackMCVeloHits  SUCCESS Number of counters : 1
 |    Counter                                      |     #     |    sum     | mean/eff^* | rms/err^*  |     min     |     max     |
 | "# UnPackedData"                                |        10 |      10923 |     1092.3 |     775.93 |      106.00 |      2378.0 |
UnpackMCPuVetoHitsSUCCESS Number of counters : 1
 |    Counter                                      |     #     |    sum     | mean/eff^* | rms/err^*  |     min     |     max     |
 | "# UnPackedData"                                |        10 |        635 |     63.500 |     37.879 |      9.0000 |      129.00 |
UnpackMCTTHits    SUCCESS Number of counters : 1
 |    Counter                                      |     #     |    sum     | mean/eff^* | rms/err^*  |     min     |     max     |
 | "# UnPackedData"                                |        10 |       4093 |     409.30 |     296.11 |      40.000 |      838.00 |
UnpackMCITHits    SUCCESS Number of counters : 1
 |    Counter                                      |     #     |    sum     | mean/eff^* | rms/err^*  |     min     |     max     |
 | "# UnPackedData"                                |        10 |       4451 |     445.10 |     329.47 |      13.000 |      1047.0 |
UnpackMCOTHits    SUCCESS Number of counters : 1
 |    Counter                                      |     #     |    sum     | mean/eff^* | rms/err^*  |     min     |     max     |
 | "# UnPackedData"                                |        10 |      11296 |     1129.6 |     847.87 |      47.000 |      2121.0 |
UnpackMCRichHits  SUCCESS Number of counters : 1
 |    Counter                                      |     #     |    sum     | mean/eff^* | rms/err^*  |     min     |     max     |
 | "# UnPackedData"                                |        10 |      47865 |     4786.5 |     3862.3 |      183.00 |      10449. |
UnpackMCSpdHits   SUCCESS Number of counters : 1
 |    Counter                                      |     #     |    sum     | mean/eff^* | rms/err^*  |     min     |     max     |
 | "# UnPackedData"                                |        10 |      13853 |     1385.3 |     959.79 |      18.000 |      2763.0 |
UnpackMCPrsHits   SUCCESS Number of counters : 1
 |    Counter                                      |     #     |    sum     | mean/eff^* | rms/err^*  |     min     |     max     |
 | "# UnPackedData"                                |        10 |      26501 |     2650.1 |     1829.1 |      42.000 |      5825.0 |
UnpackMCEcalHits  SUCCESS Number of counters : 1
 |    Counter                                      |     #     |    sum     | mean/eff^* | rms/err^*  |     min     |     max     |
 | "# UnPackedData"                                |        10 |      33138 |     3313.8 |     2240.6 |      54.000 |      6926.0 |
UnpackMCHcalHits  SUCCESS Number of counters : 1
 |    Counter                                      |     #     |    sum     | mean/eff^* | rms/err^*  |     min     |     max     |
 | "# UnPackedData"                                |        10 |       3579 |     357.90 |     233.81 |      23.000 |      698.00 |
BooleInit         SUCCESS ==================================================================
BooleInit         SUCCESS 10 events processed
BooleInit         SUCCESS ==================================================================
VeloSim              INFO Removed  0.66% MCVeloFEs due to bad strips and  0.00% as random removals
VeloPUSim            INFO Removed  0.00% MCVeloFEs due to bad strips and  1.38% as random removals
TTClusterKiller      INFO Fraction of clusters killed 0 %
TTClusterKiller   SUCCESS Number of counters : 2
 |    Counter                                      |     #     |    sum     | mean/eff^* | rms/err^*  |     min     |     max     |
 | "Dead"                                          |         0 |          0 |     0.0000 |     0.0000 | 1.7977e+308 |-1.7977e+308 |
 | "Processed"                                     |      3837 |       3837 |     1.0000 |     0.0000 |      1.0000 |      1.0000 |
ITClusterKiller      INFO Fraction of clusters killed 0.124719 %
ITClusterKiller   SUCCESS Number of counters : 2
 |    Counter                                      |     #     |    sum     | mean/eff^* | rms/err^*  |     min     |     max     |
 | "Dead"                                          |         5 |          5 |     1.0000 |     0.0000 |      1.0000 |      1.0000 |
 | "Processed"                                     |      4009 |       4009 |     1.0000 |     0.0000 |      1.0000 |      1.0000 |
RichPDSignal      SUCCESS Number of counters : 1
 |    Counter                                      |     #     |    sum     | mean/eff^* | rms/err^*  |     min     |     max     |
 | "Found MCRichHits at MC/Rich/Hits"              |        10 |         10 |     1.0000 |     0.0000 |      1.0000 |      1.0000 |
CaloFillPrsSpdR...   INFO Average event size :   325.2 words,    70.5 for trigger  Mean bank size    40.7, maximum size    61.8
EcalFillRawBuffer    INFO Average event size :  1528.3 words,  1182.8 for trigger  Mean bank size    58.8, maximum size    74.0
HcalFillRawBuffer    INFO Average event size :   402.2 words,   286.4 for trigger  Mean bank size    50.3, maximum size    65.1
EcalDigitMCTruth  SUCCESS Number of counters : 1
 |    Counter                                      |     #     |    sum     | mean/eff^* | rms/err^*  |     min     |     max     |
 | "#Digit->MC links"                              |        10 |      62524 |     6252.4 |     4374.3 |      48.000 |      12641. |
HcalDigitMCTruth  SUCCESS Number of counters : 1
 |    Counter                                      |     #     |    sum     | mean/eff^* | rms/err^*  |     min     |     max     |
 | "#Digit->MC links"                              |        10 |       5830 |     583.00 |     404.22 |      22.000 |      1193.0 |
VeloSimMoni          INFO ------------------------------------------------------
VeloSimMoni          INFO                 - VeloSimMoni table -
VeloSimMoni          INFO ------------------------------------------------------
VeloSimMoni          INFO | Number of MCVeloFEs/Event: 1679 +/- 376.864
VeloSimMoni          INFO | FEs from signal:                      96.37%
VeloSimMoni          INFO | FEs from noise:                       1.602%
VeloSimMoni          INFO | FEs from other, coupling + spillover: 2.031%
VeloSimMoni          INFO ------------------------------------------------------
VeloRawClusters...   INFO ======================================================
VeloRawClusters...   INFO               - VeloClusterMoni table -
VeloRawClusters...   INFO ------------------------------------------------------
VeloRawClusters...   INFO | Number of Clusters/Event: 971.7 +/- 212.663
VeloRawClusters...   INFO | Clusters from signal:                      100%
VeloRawClusters...   INFO | Clusters from noise:                       0%
VeloRawClusters...   INFO | Clusters from other (coupling+spillover):  0%
VeloRawClusters...   INFO ------------------------------------------------------
VeloRawClusters...   INFO               - Size of clusters (all)-
VeloRawClusters...   INFO ------------------------------------------------------
VeloRawClusters...   INFO | 1 strip clusters/event:     599.8 (61.73%)
VeloRawClusters...   INFO | 2 strip clusters/event:     291.1 (29.96%)
VeloRawClusters...   INFO | 3 strip clusters/event:     55.3 (5.69%)
VeloRawClusters...   INFO | 4 strip clusters/event:     25.5 (2.62%)
VeloRawClusters...   INFO ------------------------------------------------------
VeloRawClusters...   INFO               - Association failure -
VeloRawClusters...   INFO ------------------------------------------------------
VeloRawClusters...   INFO  Relative number of un-associated clusters: 0 %
VeloRawClusters...   INFO ======================================================
MCTTDepositMonitorSUCCESS Booked 6 Histogram(s) : 1D=4 2D=2
MCTTDigitMonitor  SUCCESS Booked 4 Histogram(s) : 1D=4
TTDigitMonitor    SUCCESS Booked 4 Histogram(s) : 1D=4
TTClusterMonitor  SUCCESS Booked 1432 Histogram(s) : 1D=1419 2D=8 1DProf=5
TTClusterMonitor  SUCCESS Number of counters : 1
 |    Counter                                      |     #     |    sum     | mean/eff^* | rms/err^*  |     min     |     max     |
 | "Number of events"                              |        10 |         10 |     1.0000 |     0.0000 |      1.0000 |      1.0000 |
TTEffChecker         INFO  -------Efficiency %---------
TTEffChecker         INFO TTaX eff 99.5495 +/- 0.449435
TTEffChecker         INFO TTaU eff 99.5536 +/- 0.445431
TTEffChecker         INFO TTbX eff 98.1982 +/- 0.892748
TTEffChecker         INFO TTbV eff 100 +/- 0
TTEffChecker         INFO  -----------------------
TTEffChecker      SUCCESS Booked 24 Histogram(s) : 1D=16 2D=8
MCITDepositMonitorSUCCESS Booked 7 Histogram(s) : 1D=4 2D=3
MCITDigitMonitor  SUCCESS Booked 4 Histogram(s) : 1D=4
ITDigitMonitor    SUCCESS Booked 4 Histogram(s) : 1D=4
ITClusterMonitor  SUCCESS Booked 1604 Histogram(s) : 1D=1591 2D=8 1DProf=5
ITClusterMonitor  SUCCESS Number of counters : 1
 |    Counter                                      |     #     |    sum     | mean/eff^* | rms/err^*  |     min     |     max     |
 | "Number of events"                              |        10 |         10 |     1.0000 |     0.0000 |      1.0000 |      1.0000 |
ITEffChecker         INFO  -------Efficiency %---------
ITEffChecker         INFO IT1TopX1 eff 100 +/- 0
ITEffChecker         INFO IT1TopU eff 100 +/- 0
ITEffChecker         INFO IT1TopV eff 93.3333 +/- 6.44061
ITEffChecker         INFO IT1TopX2 eff 100 +/- 0
ITEffChecker         INFO IT1BottomX1 eff 100 +/- 0
ITEffChecker         INFO IT1BottomU eff 71.4286 +/- 17.0747
ITEffChecker         INFO IT1BottomV eff 100 +/- 0
ITEffChecker         INFO IT1BottomX2 eff 83.3333 +/- 15.2145
ITEffChecker         INFO IT1ASideX1 eff 100 +/- 0
ITEffChecker         INFO IT1ASideU eff 100 +/- 0
ITEffChecker         INFO IT1ASideV eff 100 +/- 0
ITEffChecker         INFO IT1ASideX2 eff 93.5484 +/- 4.41237
ITEffChecker         INFO IT1CSideX1 eff 100 +/- 0
ITEffChecker         INFO IT1CSideU eff 100 +/- 0
ITEffChecker         INFO IT1CSideV eff 83.3333 +/- 6.80414
ITEffChecker         INFO IT1CSideX2 eff 100 +/- 0
ITEffChecker         INFO IT2TopX1 eff 100 +/- 0
ITEffChecker         INFO IT2TopU eff 90.9091 +/- 8.66784
ITEffChecker         INFO IT2TopV eff 100 +/- 0
ITEffChecker         INFO IT2TopX2 eff 90.9091 +/- 8.66784
ITEffChecker         INFO IT2BottomX1 eff 100 +/- 0
ITEffChecker         INFO IT2BottomU eff 100 +/- 0
ITEffChecker         INFO IT2BottomV eff 100 +/- 0
ITEffChecker         INFO IT2BottomX2 eff 100 +/- 0
ITEffChecker         INFO IT2ASideX1 eff 100 +/- 0
ITEffChecker         INFO IT2ASideU eff 100 +/- 0
ITEffChecker         INFO IT2ASideV eff 100 +/- 0
ITEffChecker         INFO IT2ASideX2 eff 100 +/- 0
ITEffChecker         INFO IT2CSideX1 eff 100 +/- 0
ITEffChecker         INFO IT2CSideU eff 100 +/- 0
ITEffChecker         INFO IT2CSideV eff 100 +/- 0
ITEffChecker         INFO IT2CSideX2 eff 100 +/- 0
ITEffChecker         INFO IT3TopX1 eff 62.5 +/- 17.1163
ITEffChecker         INFO IT3TopU eff 100 +/- 0
ITEffChecker         INFO IT3TopV eff 100 +/- 0
ITEffChecker         INFO IT3TopX2 eff 100 +/- 0
ITEffChecker         INFO IT3BottomX1 eff 100 +/- 0
ITEffChecker         INFO IT3BottomU eff 100 +/- 0
ITEffChecker         INFO IT3BottomV eff 100 +/- 0
ITEffChecker         INFO IT3BottomX2 eff 100 +/- 0
ITEffChecker         INFO IT3ASideX1 eff 100 +/- 0
ITEffChecker         INFO IT3ASideU eff 100 +/- 0
ITEffChecker         INFO IT3ASideV eff 96.6667 +/- 3.27731
ITEffChecker         INFO IT3ASideX2 eff 100 +/- 0
ITEffChecker         INFO IT3CSideX1 eff 100 +/- 0
ITEffChecker         INFO IT3CSideU eff 92 +/- 5.42586
ITEffChecker         INFO IT3CSideV eff 100 +/- 0
ITEffChecker         INFO IT3CSideX2 eff 100 +/- 0
ITEffChecker         INFO  -----------------------
ITEffChecker      SUCCESS Booked 288 Histogram(s) : 1D=192 2D=96
MCOTDepositMonitorSUCCESS Booked 31 Histogram(s) : 1D=27 2D=4
OTTimeChecker     SUCCESS Booked 12 Histogram(s) : 1D=12
OTTimeMonitor     SUCCESS Booked 9 Histogram(s) : 1D=8 1DProf=1
OTTimeClassific...   INFO --- OTTimeClassification ---------------
OTTimeClassific...   INFO Event Spill 0.975597
OTTimeClassific...   INFO    |---> Primary 0.218141
OTTimeClassific...   INFO    |---> Secondary 0.757456
OTTimeClassific...   INFO    |---> Unknown 0
OTTimeClassific...   INFO Noise 0.0244026
OTTimeClassific...   INFO Spillover 0
OTTimeClassific...   INFO ----------------------------------------
OTTimeClassific...SUCCESS Booked 2 Histogram(s) : 1D=1 2D=1
RiDigitQC            INFO ===============================================================================================
RiDigitQC            INFO                             RICH Digitisation Simulation Summary
RiDigitQC            INFO -----------------------------------------------------------------------------------------------
RiDigitQC            INFO  Rich1 : Av. total  hit occupancy      1192.10 +-10.92 hits/event
RiDigitQC            INFO        : Av. signal hit occupancy       833.60 +- 9.13 hits/event
RiDigitQC            INFO        :   /Event/MC/Rich/Hits          100.00 +- 0.00 % of total, 100.00 +- 0.00 % signal eff.
RiDigitQC            INFO        : Av. HPD hit occupancy            6.18 +- 0.06 hits/event
RiDigitQC            INFO        :   Min Av. HPD occ. hID=641001    0.20 +- 0.14 hits/event
RiDigitQC            INFO        :   Max Av. HPD occ. hID=646005   30.60 +- 1.75 hits/event
RiDigitQC            INFO        : % overall background hits       30.07 +- 0.42 %
RiDigitQC            INFO        :   % rayleigh scattered hits      1.80 +- 0.12 %
RiDigitQC            INFO        :   % charged track on HPD hits    0.02 +- 0.01 %
RiDigitQC            INFO        :   % gas quartz window CK hits    3.51 +- 0.17 %
RiDigitQC            INFO        :   % hpd quartz window CK hits   17.22 +- 0.35 %
RiDigitQC            INFO        :   % nitrogen CK hits             0.03 +- 0.01 %
RiDigitQC            INFO        :   % aerogel filter CK hits       0.09 +- 0.03 %
RiDigitQC            INFO        :   % silicon back-scatter hits    0.45 +- 0.06 %
RiDigitQC            INFO        :   % internal reflection hits    14.68 +- 0.32 %
RiDigitQC            INFO        :   % silicon charge share hits    1.02 +- 0.09 %
RiDigitQC            INFO -----------------------------------------------------------------------------------------------
RiDigitQC            INFO  Rich2 : Av. total  hit occupancy      1883.10 +-13.72 hits/event
RiDigitQC            INFO        : Av. signal hit occupancy       611.90 +- 7.82 hits/event
RiDigitQC            INFO        :   /Event/MC/Rich/Hits          100.00 +- 0.00 % of total, 100.00 +- 0.00 % signal eff.
RiDigitQC            INFO        : Av. HPD hit occupancy            8.68 +- 0.06 hits/event
RiDigitQC            INFO        :   Min Av. HPD occ. hID=503001    0.10 +- 0.10 hits/event
RiDigitQC            INFO        :   Max Av. HPD occ. hID=627008   15.70 +- 1.25 hits/event
RiDigitQC            INFO        : % overall background hits       67.51 +- 0.34 %
RiDigitQC            INFO        :   % rayleigh scattered hits      0.00 +- 0.00 %
RiDigitQC            INFO        :   % charged track on HPD hits    0.02 +- 0.01 %
RiDigitQC            INFO        :   % gas quartz window CK hits    2.21 +- 0.11 %
RiDigitQC            INFO        :   % hpd quartz window CK hits   17.68 +- 0.28 %
RiDigitQC            INFO        :   % nitrogen CK hits             0.02 +- 0.01 %
RiDigitQC            INFO        :   % aerogel filter CK hits       0.00 +- 0.00 %
RiDigitQC            INFO        :   % silicon back-scatter hits    0.64 +- 0.06 %
RiDigitQC            INFO        :   % internal reflection hits    19.15 +- 0.29 %
RiDigitQC            INFO        :   % silicon charge share hits    2.03 +- 0.10 %
RiDigitQC            INFO ===============================================================================================
RiDigitQC         SUCCESS Booked 6 Histogram(s) : 1D=6
SpdCheck          SUCCESS Booked 4 Histogram(s) : 1D=4
PrsCheck          SUCCESS Booked 4 Histogram(s) : 1D=4
EcalCheck         SUCCESS Booked 6 Histogram(s) : 1D=6
HcalCheck         SUCCESS Booked 6 Histogram(s) : 1D=6
MuonDigitChecker     INFO -----------------------------------------------------------------
MuonDigitChecker     INFO        Muon Monitoring Table
MuonDigitChecker     INFO -----------------------------------------------------------------
MuonDigitChecker     INFO -----------------------------------------------------------------
MuonDigitChecker     INFO     Digi Information
MuonDigitChecker     INFO -----------------------------------------------------------------
MuonDigitChecker     INFO -----------------------------------------------------------------
MuonDigitChecker     INFO -----   Container: Geant------------------------
MuonDigitChecker     INFO -----------------------------------------------------------------
MuonDigitChecker     INFO M1     M2     M3     M4     M5
MuonDigitChecker     INFO 42.400  32.700  5.500  1.600  0.800   R1
MuonDigitChecker     INFO 35.200  12.100  3.600  2.100  0.300   R2
MuonDigitChecker     INFO 38.200  4.300  1.300  0.400  0.900   R3
MuonDigitChecker     INFO 37.400  6.900  0.400  0.200  0.200   R4
MuonDigitChecker     INFO -----------------------------------------------------------------
MuonDigitChecker     INFO -----   Container: FlastSpillOver------------------------
MuonDigitChecker     INFO -----------------------------------------------------------------
MuonDigitChecker     INFO M1     M2     M3     M4     M5
MuonDigitChecker     INFO 0.000  0.300  0.000  0.000  0.100   R1
MuonDigitChecker     INFO 0.400  0.700  0.100  0.000  0.200   R2
MuonDigitChecker     INFO 0.400  1.000  0.800  0.400  0.800   R3
MuonDigitChecker     INFO 0.200  0.300  0.000  0.000  1.300   R4
MuonDigitChecker     INFO -----------------------------------------------------------------
MuonDigitChecker     INFO -----   Container: Low Energy Background------------------------
MuonDigitChecker     INFO -----------------------------------------------------------------
MuonDigitChecker     INFO M1     M2     M3     M4     M5
MuonDigitChecker     INFO 0.000  2.900  2.400  0.100  0.200   R1
MuonDigitChecker     INFO 0.000  3.400  0.700  0.200  0.600   R2
MuonDigitChecker     INFO 0.000  2.100  0.800  0.700  0.300   R3
MuonDigitChecker     INFO 0.000  0.400  0.200  0.000  0.000   R4
MuonDigitChecker     INFO -----------------------------------------------------------------
MuonDigitChecker     INFO -----   Container: Chamber Noise------------------------
MuonDigitChecker     INFO -----------------------------------------------------------------
MuonDigitChecker     INFO M1     M2     M3     M4     M5
MuonDigitChecker     INFO 0.000  0.000  0.000  0.000  0.000   R1
MuonDigitChecker     INFO 0.000  0.000  0.000  0.000  0.000   R2
MuonDigitChecker     INFO 0.000  0.000  0.000  0.000  0.000   R3
MuonDigitChecker     INFO 0.000  0.000  0.000  0.000  0.000   R4
MuonDigitChecker     INFO -----------------------------------------------------------------
MuonDigitChecker     INFO -----   Container: Crosstalk------------------------
MuonDigitChecker     INFO -----------------------------------------------------------------
MuonDigitChecker     INFO M1     M2     M3     M4     M5
MuonDigitChecker     INFO 2.500  4.900  0.500  0.600  0.400   R1
MuonDigitChecker     INFO 10.500  1.100  0.400  0.200  0.000   R2
MuonDigitChecker     INFO 7.000  1.000  0.200  0.000  0.300   R3
MuonDigitChecker     INFO 1.000  0.000  0.000  0.000  0.000   R4
MuonDigitChecker     INFO -----------------------------------------------------------------
MuonDigitChecker     INFO -----   Container: Electronic Noise------------------------
MuonDigitChecker     INFO -----------------------------------------------------------------
MuonDigitChecker     INFO M1     M2     M3     M4     M5
MuonDigitChecker     INFO 0.100  0.100  0.000  0.000  0.000   R1
MuonDigitChecker     INFO 0.000  0.000  0.000  0.000  0.000   R2
MuonDigitChecker     INFO 0.000  0.000  0.000  0.000  0.000   R3
MuonDigitChecker     INFO 0.000  0.000  0.000  0.000  0.000   R4
FSROutputStream...   INFO Set up File Summary Record
FSROutputStream...   INFO Events output: 1
DigiWriter           INFO Events output: 10
RawWriter            INFO Events output: 10
EventLoopMgr         INFO Histograms converted successfully according to request.
LHCb::RawDataCn...   INFO Closed connected MDF stream:PFN:30000000-100ev-20110902-MC10-10ev.mdf ID:0x1c9db510
RootCnvSvc           INFO Disconnected data IO:88E361FF-2A89-E611-A898-02163E017C4E [30000000-100ev-20110902-MC10-10ev.digi]
RootCnvSvc           INFO Disconnected data IO:E6CD1DCB-87D5-E011-A5D7-000CF1F44509 [root://eoslhcb.cern.ch//eos/lhcb/grid/prod/lhcb/swtest/lhcb/swtest/boole.fixedfile-gauss-v39r4-mc10-sim/Gauss-v39r4-30000000-100ev-20110902-MC10.sim]
ToolSvc              INFO Removing all tools created by ToolSvc
ToolSvc.RichRaw...   INFO ========================================================================================================================
ToolSvc.RichRaw...   INFO                              RICH Level 1 : Encoding Summary : 10 events
ToolSvc.RichRaw...   INFO ------------------------------------------------------------------------------------------------------------------------
ToolSvc.RichRaw...   INFO  Rich2 L1ID(hard/log)  1/ 8 V129 | L1 size =  23.70 +- 1.54 pds :   95.40 +- 3.09 words :  133.10 +- 3.65 hits / event
ToolSvc.RichRaw...   INFO ------------------------------------------------------------------------------------------------------------------------
ToolSvc.RichRaw...   INFO  Rich1 L1ID(hard/log)  3/ 1 V129 | L1 size =  21.30 +- 1.46 pds :   81.90 +- 2.86 words :  120.90 +- 3.48 hits / event
ToolSvc.RichRaw...   INFO ------------------------------------------------------------------------------------------------------------------------
ToolSvc.RichRaw...   INFO  Rich2 L1ID(hard/log)  4/ 6 V129 | L1 size =  23.90 +- 1.55 pds :  128.30 +- 3.58 words :  220.30 +- 4.69 hits / event
ToolSvc.RichRaw...   INFO  Rich2 L1ID(hard/log)  5/ 7 V129 | L1 size =  24.80 +- 1.57 pds :  127.00 +- 3.56 words :  212.70 +- 4.61 hits / event
ToolSvc.RichRaw...   INFO  Rich2 L1ID(hard/log)  6/ 3 V129 | L1 size =  24.50 +- 1.57 pds :  143.50 +- 3.79 words :  261.20 +- 5.11 hits / event
ToolSvc.RichRaw...   INFO  Rich2 L1ID(hard/log)  8/ 2 V129 | L1 size =  23.40 +- 1.53 pds :  164.00 +- 4.05 words :  369.40 +- 6.08 hits / event
ToolSvc.RichRaw...   INFO  Rich2 L1ID(hard/log)  9/ 1 V129 | L1 size =  25.60 +- 1.60 pds :  150.20 +- 3.88 words :  292.20 +- 5.41 hits / event
ToolSvc.RichRaw...   INFO  Rich2 L1ID(hard/log) 11/ 4 V129 | L1 size =  22.80 +- 1.51 pds :  120.60 +- 3.47 words :  236.30 +- 4.86 hits / event
ToolSvc.RichRaw...   INFO  Rich2 L1ID(hard/log) 12/ 5 V129 | L1 size =  23.10 +- 1.52 pds :  101.10 +- 3.18 words :  157.90 +- 3.97 hits / event
ToolSvc.RichRaw...   INFO ------------------------------------------------------------------------------------------------------------------------
ToolSvc.RichRaw...   INFO  Rich1 L1ID(hard/log) 13/ 2 V129 | L1 size =  20.30 +- 1.42 pds :   88.40 +- 2.97 words :  169.90 +- 4.12 hits / event
ToolSvc.RichRaw...   INFO  Rich1 L1ID(hard/log) 14/ 3 V129 | L1 size =  14.40 +- 1.20 pds :   66.60 +- 2.58 words :  109.00 +- 3.30 hits / event
ToolSvc.RichRaw...   INFO  Rich1 L1ID(hard/log) 16/ 4 V129 | L1 size =   8.20 +- 0.91 pds :   54.20 +- 2.33 words :  110.40 +- 3.32 hits / event
ToolSvc.RichRaw...   INFO  Rich1 L1ID(hard/log) 17/ 5 V129 | L1 size =  10.40 +- 1.02 pds :   49.40 +- 2.22 words :   75.20 +- 2.74 hits / event
ToolSvc.RichRaw...   INFO  Rich1 L1ID(hard/log) 18/ 6 V129 | L1 size =  25.90 +- 1.61 pds :  170.30 +- 4.13 words :  331.50 +- 5.76 hits / event
ToolSvc.RichRaw...   INFO  Rich1 L1ID(hard/log) 20/ 7 V129 | L1 size =  23.80 +- 1.54 pds :  139.30 +- 3.73 words :  275.20 +- 5.25 hits / event
ToolSvc.RichRaw...   INFO ------------------------------------------------------------------------------------------------------------------------
ToolSvc.RichRaw...   INFO  Rich1 Average                   | L1 size = 124.30 +- 3.53 pds :  650.10 +- 8.06 words : 1192.10 +-10.92 hits / event
ToolSvc.RichRaw...   INFO  Rich2 Average                   | L1 size = 191.80 +- 4.38 pds : 1030.10 +-10.15 words : 1883.10 +-13.72 hits / event
ToolSvc.RichRaw...   INFO ========================================================================================================================
VeloPUSim.RadDa...SUCCESS Exceptions/Errors/Warnings/Infos Statistics : 0/0/1/0
VeloPUSim.RadDa...SUCCESS  #WARNINGS   = 1        Message = 'VELO radiation damage parameters not in conditions DB'
VeloSim.RadDamage SUCCESS Exceptions/Errors/Warnings/Infos Statistics : 0/0/1/0
VeloSim.RadDamage SUCCESS  #WARNINGS   = 1        Message = 'VELO radiation damage parameters not in conditions DB'
BooleInit.Boole...SUCCESS Booked 4 Histogram(s) : 1D=4
BooleInit.Boole...SUCCESS Number of counters : 2
 |    Counter                                      |     #     |    sum     | mean/eff^* | rms/err^*  |     min     |     max     |
 | "Delta Memory/MB"                               |         9 |     213.14 |     23.682 |     51.153 |      0.0000 |      166.49 |
 | "Total Memory/MB"                               |        10 |   14905.61 |     1490.6 |     60.900 |      1314.8 |      1527.9 |
ToolSvc.OTChann...SUCCESS Exceptions/Errors/Warnings/Infos Statistics : 0/0/2/0
ToolSvc.OTChann...SUCCESS  #WARNINGS   = 1        Message = 'Updating OT channel map for bank version 3 [OTFillRawBuffer]'
ToolSvc.OTChann...SUCCESS  #WARNINGS   = 1        Message = 'Updating OT channel map for bank version 63 [OTTimeChecker]'
TimingAuditor.T...   INFO --------------------------------------------------------------------------------------------------
TimingAuditor.T...   INFO This machine has a speed about   3.12 times the speed of a 2.8 GHz Xeon.
TimingAuditor.T...   INFO Algorithm          (millisec) |    <user> |   <clock> |      min       max    sigma | entries | total (s) |
TimingAuditor.T...   INFO --------------------------------------------------------------------------------------------------
TimingAuditor.T...   INFO EVENT LOOP                    |  1674.086 |  2283.492 |   95.749    3845.9  1474.09 |      10 |    22.835 |
TimingAuditor.T...   INFO  BooleSequencer               |   250.969 |   277.854 |   90.549     722.1   190.09 |      10 |     2.779 |
TimingAuditor.T...   INFO   Init                        |    37.138 |    45.770 |    2.466     340.5   103.91 |      10 |     0.458 |
TimingAuditor.T...   INFO    InitBooleSeq               |     3.430 |     4.244 |    0.355      38.6    12.08 |      10 |     0.042 |
TimingAuditor.T...   INFO     BooleInit                 |     3.270 |     4.146 |    0.280      38.4    12.05 |      10 |     0.041 |
TimingAuditor.T...   INFO     SpilloverHandler          |     0.138 |     0.068 |    0.053       0.1     0.02 |      10 |     0.001 |
TimingAuditor.T...   INFO      SpilloverLoader          |     0.120 |     0.045 |    0.035       0.1     0.02 |      10 |     0.000 |
TimingAuditor.T...   INFO      SpilloverKiller          |     0.003 |     0.008 |    0.006       0.0     0.01 |      10 |     0.000 |
TimingAuditor.T...   INFO    InitDataSeq                |     0.002 |     0.004 |    0.004       0.0     0.00 |      10 |     0.000 |
TimingAuditor.T...   INFO    InitMuonSeq                |    33.700 |    41.506 |    2.089     301.9    91.88 |      10 |     0.415 |
TimingAuditor.T...   INFO     MuonLowEnergy             |    32.581 |    40.050 |    1.536     292.3    89.02 |      10 |     0.401 |
TimingAuditor.T...   INFO     MuonFlatSpillover         |     1.088 |     1.425 |    0.312       9.5     2.86 |      10 |     0.014 |
TimingAuditor.T...   INFO   Digi                        |   121.778 |   139.286 |   46.383     253.9    72.29 |      10 |     1.393 |
TimingAuditor.T...   INFO    DigiVeloSeq                |    22.933 |    26.054 |    8.668      61.4    15.73 |      10 |     0.261 |
TimingAuditor.T...   INFO     VeloSim                   |    17.436 |    19.323 |    5.367      32.2     9.80 |      10 |     0.193 |
TimingAuditor.T...   INFO     VeloPUSim                 |     1.710 |     2.884 |    0.420      18.9     5.65 |      10 |     0.029 |
TimingAuditor.T...   INFO     VeloTell1DataProcessor    |     1.021 |     0.997 |    0.625       1.7     0.27 |      10 |     0.010 |
TimingAuditor.T...   INFO     VeloSimTell1ClusterMaker  |     2.704 |     2.732 |    1.092      11.8     3.20 |      10 |     0.027 |
TimingAuditor.T...   INFO     PuVetoFillRawBuffer       |     0.039 |     0.050 |    0.019       0.3     0.08 |      10 |     0.001 |
TimingAuditor.T...   INFO    DigiTTSeq                  |    20.487 |    22.163 |    4.322      54.3    15.53 |      10 |     0.222 |
TimingAuditor.T...   INFO     MCTTDepositCreator        |    15.026 |    16.759 |    1.738      46.6    13.69 |      10 |     0.168 |
TimingAuditor.T...   INFO     MCTTDigitCreator          |     0.617 |     0.609 |    0.081       1.1     0.41 |      10 |     0.006 |
TimingAuditor.T...   INFO     TTDigitCreator            |     3.270 |     3.266 |    1.928       4.4     0.99 |      10 |     0.033 |
TimingAuditor.T...   INFO     TTClusterCreator          |     1.082 |     1.067 |    0.409       1.6     0.45 |      10 |     0.011 |
TimingAuditor.T...   INFO     TTClusterKiller           |     0.118 |     0.141 |    0.035       0.4     0.11 |      10 |     0.001 |
TimingAuditor.T...   INFO     createTTRawBuffer         |     0.257 |     0.244 |    0.074       0.8     0.20 |      10 |     0.002 |
TimingAuditor.T...   INFO    DigiITSeq                  |    15.846 |    17.471 |    2.630      32.9    10.14 |      10 |     0.175 |
TimingAuditor.T...   INFO     MCITDepositCreator        |    11.389 |    13.027 |    0.492      25.6     8.70 |      10 |     0.130 |
TimingAuditor.T...   INFO     MCITDigitCreator          |     0.466 |     0.439 |    0.028       0.9     0.31 |      10 |     0.004 |
TimingAuditor.T...   INFO     ITDigitCreator            |     2.719 |     2.703 |    1.630       4.1     0.87 |      10 |     0.027 |
TimingAuditor.T...   INFO     ITClusterCreator          |     0.932 |     0.942 |    0.338       1.7     0.45 |      10 |     0.009 |
TimingAuditor.T...   INFO     ITClusterKiller           |     0.109 |     0.119 |    0.019       0.2     0.07 |      10 |     0.001 |
TimingAuditor.T...   INFO     createITRawBuffer         |     0.180 |     0.169 |    0.062       0.3     0.08 |      10 |     0.002 |
TimingAuditor.T...   INFO    DigiOTSeq                  |    10.003 |    12.506 |    2.201      22.8     6.97 |      10 |     0.125 |
TimingAuditor.T...   INFO     MCOTDepositCreator        |     8.373 |    10.885 |    1.798      20.1     6.26 |      10 |     0.109 |
TimingAuditor.T...   INFO     MCOTTimeCreator           |     1.283 |     1.280 |    0.090       2.4     0.94 |      10 |     0.013 |
TimingAuditor.T...   INFO     OTFillRawBuffer           |     0.335 |     0.302 |    0.114       0.7     0.17 |      10 |     0.003 |
TimingAuditor.T...   INFO    DigiRichSeq                |    16.217 |    19.606 |    4.098      37.6    13.57 |      10 |     0.196 |
TimingAuditor.T...   INFO     RichPDSignal              |     3.395 |     6.752 |    0.396      11.6     4.75 |      10 |     0.068 |
TimingAuditor.T...   INFO     RichChargeShare           |     0.450 |     0.459 |    0.027       0.9     0.35 |      10 |     0.005 |
TimingAuditor.T...   INFO     RichSummedDeposits        |     1.279 |     1.279 |    0.083       2.9     1.08 |      10 |     0.013 |
TimingAuditor.T...   INFO     RichPDResponse            |     9.386 |     9.392 |    0.916      20.3     7.79 |      10 |     0.094 |
TimingAuditor.T...   INFO     RichFillRawBuffer         |     1.667 |     1.651 |    0.219       4.5     1.22 |      10 |     0.017 |
TimingAuditor.T...   INFO    DigiCaloSeq                |    17.648 |    22.793 |   11.067      66.1    16.01 |      10 |     0.228 |
TimingAuditor.T...   INFO     SpdSignal                 |     1.448 |     2.339 |    0.346       9.8     2.84 |      10 |     0.023 |
TimingAuditor.T...   INFO     PrsSignal                 |     1.631 |     2.788 |    0.367       8.6     2.50 |      10 |     0.028 |
TimingAuditor.T...   INFO     EcalSignal                |     2.211 |     3.505 |    0.687      10.7     3.01 |      10 |     0.035 |
TimingAuditor.T...   INFO     HcalSignal                |     0.849 |     2.565 |    0.191      22.9     7.14 |      10 |     0.026 |
TimingAuditor.T...   INFO     SpdDigit                  |     1.505 |     1.531 |    0.496       2.3     0.59 |      10 |     0.015 |
TimingAuditor.T...   INFO     PrsDigit                  |     3.140 |     3.140 |    1.636       4.6     1.00 |      10 |     0.031 |
TimingAuditor.T...   INFO     EcalDigit                 |     4.316 |     4.320 |    3.739       6.8     0.89 |      10 |     0.043 |
TimingAuditor.T...   INFO     HcalDigit                 |     1.076 |     1.062 |    1.007       1.1     0.05 |      10 |     0.011 |
TimingAuditor.T...   INFO     CaloFillPrsSpdRawBuffer   |     0.735 |     0.741 |    0.363       1.1     0.19 |      10 |     0.007 |
TimingAuditor.T...   INFO     EcalFillRawBuffer         |     0.533 |     0.556 |    0.459       0.9     0.12 |      10 |     0.006 |
TimingAuditor.T...   INFO     HcalFillRawBuffer         |     0.134 |     0.128 |    0.121       0.1     0.01 |      10 |     0.001 |
TimingAuditor.T...   INFO    DigiMuonSeq                |    18.626 |    18.652 |    3.904      29.3     8.80 |      10 |     0.187 |
TimingAuditor.T...   INFO     MuonDigitization          |     8.022 |     8.052 |    2.872      11.8     3.07 |      10 |     0.081 |
TimingAuditor.T...   INFO     MuonDigitToRawBuffer      |    10.584 |    10.561 |    1.006      18.1     6.31 |      10 |     0.106 |
TimingAuditor.T...   INFO   Link                        |    31.331 |    31.750 |    6.984      56.6    17.00 |      10 |     0.318 |
TimingAuditor.T...   INFO    LinkVeloSeq                |     3.125 |     3.273 |    0.588       6.5     2.10 |      10 |     0.033 |
TimingAuditor.T...   INFO     createVeloClusters        |     0.581 |     0.572 |    0.156       1.0     0.28 |      10 |     0.006 |
TimingAuditor.T...   INFO     VeloCluster2MCHitLinker   |     2.069 |     2.212 |    0.334       4.4     1.52 |      10 |     0.022 |
TimingAuditor.T...   INFO     VeloCluster2MCParticleLink|     0.454 |     0.449 |    0.072       1.1     0.31 |      10 |     0.004 |
TimingAuditor.T...   INFO    LinkTTSeq                  |     4.332 |     4.337 |    1.008       7.6     2.55 |      10 |     0.043 |
TimingAuditor.T...   INFO     TTDigitLinker             |     2.560 |     2.560 |    0.752       4.5     1.45 |      10 |     0.026 |
TimingAuditor.T...   INFO     TTClusterLinker           |     1.121 |     1.106 |    0.145       2.0     0.72 |      10 |     0.011 |
TimingAuditor.T...   INFO     TTTruthLinker             |     0.649 |     0.634 |    0.081       1.1     0.39 |      10 |     0.006 |
TimingAuditor.T...   INFO    LinkITSeq                  |     3.894 |     3.918 |    0.821       8.6     2.56 |      10 |     0.039 |
TimingAuditor.T...   INFO     ITDigitLinker             |     2.228 |     2.246 |    0.560       4.8     1.39 |      10 |     0.022 |
TimingAuditor.T...   INFO     ITClusterLinker           |     1.041 |     1.030 |    0.090       2.4     0.76 |      10 |     0.010 |
TimingAuditor.T...   INFO     ITTruthLinker             |     0.616 |     0.606 |    0.046       1.3     0.42 |      10 |     0.006 |
TimingAuditor.T...   INFO    LinkOTSeq                  |     9.501 |     9.498 |    0.442      19.2     7.91 |      10 |     0.095 |
TimingAuditor.T...   INFO     OTMCDepositLinker         |     3.565 |     3.560 |    0.086       7.6     3.28 |      10 |     0.036 |
TimingAuditor.T...   INFO     OTMCHitLinker             |     3.586 |     3.574 |    0.183       7.1     2.90 |      10 |     0.036 |
TimingAuditor.T...   INFO     OTMCParticleLinker        |     2.343 |     2.324 |    0.152       4.5     1.73 |      10 |     0.023 |
TimingAuditor.T...   INFO    LinkTrSeq                  |     1.458 |     1.647 |    0.243       3.2     0.97 |      10 |     0.016 |
TimingAuditor.T...   INFO     BuildMCTrackInfo          |     1.456 |     1.629 |    0.230       3.1     0.96 |      10 |     0.016 |
TimingAuditor.T...   INFO    LinkRichSeq                |     0.549 |     0.536 |    0.056       1.2     0.39 |      10 |     0.005 |
TimingAuditor.T...   INFO     Rich::MC::MCRichDigitSumma|     0.529 |     0.518 |    0.046       1.2     0.40 |      10 |     0.005 |
TimingAuditor.T...   INFO    LinkCaloSeq                |     7.872 |     7.921 |    3.623      11.6     2.71 |      10 |     0.079 |
TimingAuditor.T...   INFO     EcalFromRaw               |     1.930 |     1.981 |    1.448       5.7     1.30 |      10 |     0.020 |
TimingAuditor.T...   INFO     HcalFromRaw               |     0.452 |     0.407 |    0.342       0.7     0.10 |      10 |     0.004 |
TimingAuditor.T...   INFO     CaloReCreateMCLinks       |     0.029 |     0.049 |    0.019       0.3     0.08 |      10 |     0.000 |
TimingAuditor.T...   INFO     EcalDigitMCTruth          |     4.741 |     4.757 |    1.214       8.7     2.45 |      10 |     0.048 |
TimingAuditor.T...   INFO     HcalDigitMCTruth          |     0.669 |     0.668 |    0.375       1.0     0.23 |      10 |     0.007 |
TimingAuditor.T...   INFO    LinkMuonSeq                |     0.552 |     0.571 |    0.085       0.9     0.29 |      10 |     0.006 |
TimingAuditor.T...   INFO     MuonDigit2MCParticleAlg   |     0.463 |     0.457 |    0.053       0.7     0.24 |      10 |     0.005 |
TimingAuditor.T...   INFO     MuonTileDigitInfo         |     0.082 |     0.091 |    0.017       0.1     0.05 |      10 |     0.001 |
TimingAuditor.T...   INFO   Moni                        |    60.690 |    61.003 |    7.562     101.9    31.30 |      10 |     0.610 |
TimingAuditor.T...   INFO    MoniVeloSeq                |     7.194 |     7.200 |    0.839      17.0     5.16 |      10 |     0.072 |
TimingAuditor.T...   INFO     VeloSimMoni               |     3.913 |     3.894 |    0.541       8.1     2.45 |      10 |     0.039 |
TimingAuditor.T...   INFO     VeloRawClustersMoni       |     3.270 |     3.274 |    0.278      12.9     3.65 |      10 |     0.033 |
TimingAuditor.T...   INFO    MoniTTSeq                  |    18.618 |    18.770 |    3.698      31.8     9.84 |      10 |     0.188 |
TimingAuditor.T...   INFO     MCTTDepositMonitor        |     1.298 |     1.270 |    0.119       2.3     0.84 |      10 |     0.013 |
TimingAuditor.T...   INFO     MCTTDigitMonitor          |     0.750 |     0.679 |    0.094       1.2     0.45 |      10 |     0.007 |
TimingAuditor.T...   INFO     TTDigitMonitor            |     1.480 |     1.554 |    0.748       2.5     0.63 |      10 |     0.016 |
TimingAuditor.T...   INFO     TTClusterMonitor          |    12.866 |    12.881 |    2.002      24.3     7.19 |      10 |     0.129 |
TimingAuditor.T...   INFO     MCP2TTMCHitAlg            |     0.447 |     0.605 |    0.110       3.7     1.08 |      10 |     0.006 |
TimingAuditor.T...   INFO     TTEffChecker              |     1.734 |     1.701 |    0.541       3.2     1.00 |      10 |     0.017 |
TimingAuditor.T...   INFO    MoniITSeq                  |    18.432 |    18.428 |    1.796      28.4     8.86 |      10 |     0.184 |
TimingAuditor.T...   INFO     MCITDepositMonitor        |     1.179 |     1.176 |    0.045       2.6     0.77 |      10 |     0.012 |
TimingAuditor.T...   INFO     MCITDigitMonitor          |     0.624 |     0.619 |    0.027       1.4     0.42 |      10 |     0.006 |
TimingAuditor.T...   INFO     ITDigitMonitor            |     1.414 |     1.404 |    0.657       2.3     0.56 |      10 |     0.014 |
TimingAuditor.T...   INFO     ITClusterMonitor          |    13.317 |    13.317 |    0.674      22.5     7.14 |      10 |     0.133 |
TimingAuditor.T...   INFO     MCP2ITMCHitAlg            |     0.250 |     0.178 |    0.042       0.4     0.11 |      10 |     0.002 |
TimingAuditor.T...   INFO     ITEffChecker              |     1.635 |     1.658 |    0.294       3.5     1.08 |      10 |     0.017 |
TimingAuditor.T...   INFO    MoniOTSeq                  |    13.970 |    14.079 |    0.759      38.1    11.37 |      10 |     0.141 |
TimingAuditor.T...   INFO     MCOTDepositMonitor        |     6.916 |     6.958 |    0.250      25.8     7.35 |      10 |     0.070 |
TimingAuditor.T...   INFO     OTTimeChecker             |     3.957 |     3.969 |    0.295       7.7     3.07 |      10 |     0.040 |
TimingAuditor.T...   INFO     OTTimeMonitor             |     0.278 |     0.320 |    0.049       0.9     0.25 |      10 |     0.003 |
TimingAuditor.T...   INFO     OTTimeClassification      |     2.808 |     2.775 |    0.132      10.4     2.95 |      10 |     0.028 |
TimingAuditor.T...   INFO    MoniRichSeq                |     1.452 |     1.463 |    0.177       3.0     0.96 |      10 |     0.015 |
TimingAuditor.T...   INFO     RiDigitQC                 |     1.451 |     1.449 |    0.166       3.0     0.96 |      10 |     0.014 |
TimingAuditor.T...   INFO    MoniCaloSeq                |     0.407 |     0.424 |    0.158       1.6     0.42 |      10 |     0.004 |
TimingAuditor.T...   INFO     SpdCheck                  |     0.116 |     0.091 |    0.027       0.4     0.11 |      10 |     0.001 |
TimingAuditor.T...   INFO     PrsCheck                  |     0.054 |     0.077 |    0.019       0.3     0.09 |      10 |     0.001 |
TimingAuditor.T...   INFO     EcalCheck                 |     0.158 |     0.152 |    0.060       0.5     0.11 |      10 |     0.002 |
TimingAuditor.T...   INFO     HcalCheck                 |     0.058 |     0.071 |    0.027       0.4     0.11 |      10 |     0.001 |
TimingAuditor.T...   INFO    MoniMuonSeq                |     0.582 |     0.587 |    0.099       1.1     0.30 |      10 |     0.006 |
TimingAuditor.T...   INFO     MuonDigitChecker          |     0.579 |     0.572 |    0.088       1.1     0.30 |      10 |     0.006 |
TimingAuditor.T...   INFO    MoniMCSeq                  |     0.001 |     0.005 |    0.004       0.0     0.00 |      10 |     0.000 |
TimingAuditor.T...   INFO   Filter                      |     0.000 |     0.005 |    0.004       0.0     0.00 |      10 |     0.000 |
TimingAuditor.T...   INFO  PrepareDIGI                  |     0.006 |     0.006 |    0.004       0.0     0.00 |      10 |     0.000 |
TimingAuditor.T...   INFO  FSROutputStreamDigiWriter    |     0.000 |     0.004 |    0.004       0.0     0.00 |      10 |     0.000 |
TimingAuditor.T...   INFO  DigiWriter                   |  1410.793 |  1993.284 |    2.108    3505.2  1329.89 |      10 |    19.933 |
TimingAuditor.T...   INFO  MDFKiller                    |     8.083 |     8.095 |    2.245      15.4     4.57 |      10 |     0.081 |
TimingAuditor.T...   INFO  RawWriter                    |     1.630 |     1.720 |    0.684       2.9     0.74 |      10 |     0.017 |
TimingAuditor.T...   INFO *     UnpackMCParticles       |     3.466 |     6.638 |    0.464      19.1     6.37 |      10 |     0.066 |
TimingAuditor.T...   INFO *     UnpackMCMuonHits        |     1.053 |     1.970 |    0.129      17.9     5.59 |      10 |     0.020 |
TimingAuditor.T...   INFO *     UnpackMCVertices        |     2.782 |     5.578 |    0.379      10.3     4.14 |      10 |     0.056 |
TimingAuditor.T...   INFO *     UnpackMCVeloHits        |     1.810 |     3.683 |    0.168      17.5     5.89 |      10 |     0.037 |
TimingAuditor.T...   INFO *     UnpackMCPuVetoHits      |     0.868 |     2.015 |    0.114      18.1     5.65 |      10 |     0.020 |
TimingAuditor.T...   INFO *     UnpackMCTTHits          |     0.994 |     1.934 |    0.125      17.4     5.44 |      10 |     0.019 |
TimingAuditor.T...   INFO *     UnpackMCITHits          |     1.254 |     2.802 |    0.110      14.2     5.41 |      10 |     0.028 |
TimingAuditor.T...   INFO *     UnpackMCOTHits          |     1.790 |     4.252 |    0.220      13.4     5.13 |      10 |     0.043 |
TimingAuditor.T...   INFO *     UnpackMCRichHits        |     2.963 |     6.324 |    0.262      11.0     4.51 |      10 |     0.063 |
TimingAuditor.T...   INFO *     UnpackMCSpdHits         |     0.911 |     1.813 |    0.160       8.4     2.58 |      10 |     0.018 |
TimingAuditor.T...   INFO *     UnpackMCPrsHits         |     1.092 |     2.293 |    0.160       7.8     2.34 |      10 |     0.023 |
TimingAuditor.T...   INFO *     UnpackMCEcalHits        |     1.320 |     2.635 |    0.187       9.6     2.84 |      10 |     0.026 |
TimingAuditor.T...   INFO *     UnpackMCHcalHits        |     0.647 |     2.340 |    0.098      22.2     6.96 |      10 |     0.023 |
TimingAuditor.T...   INFO --------------------------------------------------------------------------------------------------
DataOnDemandSvc      INFO Handled "DataFault" incidents: 130/40/1100(Alg/Node/Total).
ApplicationMgr       INFO Application Manager Finalized successfully
ApplicationMgr       INFO Application Manager Terminated successfully
